<?xml version="1.0" encoding="utf-8"?>
<!-- Generator: Adobe Illustrator 26.5.2, SVG Export Plug-In . SVG Version: 6.00 Build 0)  -->
<svg version="1.1" id="Capa_1" xmlns="http://www.w3.org/2000/svg" xmlns:xlink="http://www.w3.org/1999/xlink" x="0px" y="0px"
	 viewBox="0 0 1372 1440" style="enable-background:new 0 0 1372 1440;" xml:space="preserve">
<style type="text/css">
	.st0{fill:#E1647C;}
	.st1{fill:#FEFEFE;}
	.st2{fill:#274591;}
</style>
<g>
	<path class="st0" d="M1371,686.3V1436H2.5V686.3C2.5,308.3,308.8,2,686.8,2S1371,308.3,1371,686.3"/>
</g>
<g>
	<path class="st1" d="M346.3,648.5v16.2h-3l-0.7-4.1c-1.9,2.8-4.9,4.6-9.4,4.6c-8.5,0-14.5-6.4-14.5-14.8c0-8.4,6-14.8,14.5-14.8
		c4.7,0,8.7,2,11.3,5.3L340,644c-1.5-1.8-3.7-3.1-6.7-3.1c-5.9,0-9,4.8-9,9.5c0,4.8,3.1,9.5,9,9.5c5,0,7.7-2.9,8.5-6.6h-8.1v-4.8
		H346.3z"/>
	<path class="st1" d="M370.8,654.4c0,6-4.7,10.9-10.9,10.9c-6.2,0-10.9-4.8-10.9-10.9c0-6.1,4.7-10.9,10.9-10.9
		C366.1,643.5,370.8,648.3,370.8,654.4 M365.5,654.4c0-3.2-2.2-5.9-5.6-5.9c-3.4,0-5.6,2.6-5.6,5.9c0,3.2,2.2,5.9,5.6,5.9
		C363.4,660.2,365.5,657.6,365.5,654.4"/>
	<path class="st1" d="M395.5,654.4c0,5.4-3.7,10.9-10.1,10.9c-3.2,0-5.3-1.3-6.6-2.9v2.4h-5.2v-28.6h5.2v10.3
		c1.3-1.7,3.4-2.9,6.6-2.9C391.9,643.5,395.5,648.9,395.5,654.4 M390.2,654.4c0-3.2-2-5.9-5.6-5.9c-3.5,0-5.6,2.7-5.6,5.9
		c0,3.2,2,5.9,5.6,5.9C388.2,660.2,390.2,657.5,390.2,654.4"/>
	<path class="st1" d="M398.2,638.2c0-1.5,1.2-2.7,2.7-2.7c1.5,0,2.8,1.2,2.8,2.7c0,1.5-1.2,2.8-2.8,2.8
		C399.5,641,398.2,639.8,398.2,638.2 M398.4,644h5.2v20.7h-5.2V644z"/>
	<path class="st1" d="M427.3,656.4H412c0.7,2.8,3,4.2,5.9,4.2c2.4,0,4-1.3,4.6-2l4.2,2.4c-1.7,2.3-4.9,4.2-8.8,4.2
		c-6.9,0-11.4-4.6-11.4-10.9c0-6.5,4.9-10.8,10.6-10.8C423.3,643.5,428.2,648.2,427.3,656.4 M422.2,652.4c-0.5-2.7-2.4-4.2-5.1-4.2
		c-2.5,0-4.5,1.6-5.1,4.2H422.2z"/>
	<path class="st1" d="M442.3,643.5v5.6c-6.1-0.7-6.9,3.2-6.9,7v8.5h-5.2V644h5.2v3.4C437,644.8,439.9,643.5,442.3,643.5"/>
	<path class="st1" d="M464,652.1v12.6h-5.2v-11.5c0-2.6-1.1-4.6-4-4.6c-3.1,0-4.4,2.3-4.4,4.6v11.5h-5.1V644h5.1v2.5
		c1.1-1.7,3-3,6-3C461.6,643.5,464,647.8,464,652.1"/>
	<path class="st1" d="M488.7,654.4c0,6-4.7,10.9-10.9,10.9c-6.2,0-10.9-4.8-10.9-10.9c0-6.1,4.7-10.9,10.9-10.9
		C484,643.5,488.7,648.3,488.7,654.4 M483.4,654.4c0-3.2-2.2-5.9-5.6-5.9c-3.4,0-5.6,2.6-5.6,5.9c0,3.2,2.2,5.9,5.6,5.9
		C481.2,660.2,483.4,657.6,483.4,654.4"/>
	<path class="st1" d="M522,636.1v28.6h-5.2v-2.4c-1.3,1.7-3.4,2.9-6.6,2.9c-6.4,0-10.1-5.4-10.1-10.9c0-5.4,3.7-10.9,10.1-10.9
		c3.2,0,5.3,1.2,6.6,2.9v-10.3H522z M516.5,654.4c0-3.2-2-5.9-5.5-5.9c-3.6,0-5.6,2.7-5.6,5.9c0,3.2,2,5.9,5.6,5.9
		C514.5,660.2,516.5,657.5,516.5,654.4"/>
	<path class="st1" d="M545.7,656.4h-15.3c0.7,2.8,3,4.2,5.9,4.2c2.4,0,4-1.3,4.6-2l4.2,2.4c-1.7,2.3-4.9,4.2-8.8,4.2
		c-6.9,0-11.4-4.6-11.4-10.9c0-6.5,4.9-10.8,10.6-10.8C541.6,643.5,546.6,648.2,545.7,656.4 M540.6,652.4c-0.5-2.7-2.4-4.2-5.1-4.2
		c-2.5,0-4.5,1.6-5.1,4.2H540.6z"/>
	<path class="st1" d="M290.8,696.4h-7.5v-5.8h18.1v21.4h-6.1l0.3-15.7L290.8,696.4z M260.1,691.7c0-12.1,8.6-21.1,20.8-21.1
		c6.9,0,12.8,3,16.4,7.9l-8.3,5.5c-1.8-2.3-4.5-3.8-8.2-3.8c-7.1,0-10.8,5.8-10.8,11.5 M270,691.7c0,5.8,3.7,11.5,10.8,11.5
		c6.7,0,9.4-5.3,10.3-8.3l5.1,0.7l2.2,2c-1.6,4.3-5,15.1-17.6,15.1c-12.1,0-20.8-9-20.8-21.1"/>
	<path class="st1" d="M334.6,682.5v29.6h-9.5v-2.7c-1.6,1.9-4.2,3.4-8,3.4c-7.4,0-10.8-5.8-10.8-11.8v-18.5h9.4v16
		c0,3.4,2.2,5.1,4.7,5.1c2.8,0,4.7-1.8,4.7-5.1v-16H334.6z"/>
	<path class="st1" d="M366.9,693.7v18.4h-9.4v-2.7c-1.6,2.3-5.1,3.5-8.1,3.5c-4,0-10.1-1.5-10.1-8.7c0-9.8,12.7-9.8,14.7-9.8h3.5
		v-0.1c0-2.8-1.4-4.8-4.8-4.8c-2.4,0-4.4,0.9-5.6,1.9l-6.2-4.2c3.2-3.4,7.6-5.3,13.3-5.3C363.5,681.8,366.9,686.7,366.9,693.7
		 M357.4,699.1h-0.8c-4.7,0-7.9,0.9-7.9,3.8c0,2.2,1.7,3,3.8,3c2,0,4-1,4.8-2.1V699.1z"/>
	<path class="st1" d="M403.5,671.3v40.8H394v-2.9c-1.8,2.1-4.4,3.6-8.3,3.6c-9.2,0-14.2-7.8-14.2-15.5c0-7.7,5-15.5,14.2-15.5
		c4,0,6.6,1.5,8.3,3.6v-14.2H403.5z M393.7,697.4c0-4-2.8-6.4-6.4-6.4c-3.9,0-6.3,2.7-6.3,6.4c0,3.6,2.4,6.3,6.3,6.3
		C390.9,703.7,393.7,701.3,393.7,697.4"/>
	<path class="st1" d="M435.8,693.7v18.4h-9.4v-2.7c-1.6,2.3-5.1,3.5-8.1,3.5c-4,0-10.1-1.5-10.1-8.7c0-9.8,12.7-9.8,14.7-9.8h3.5
		v-0.1c0-2.8-1.4-4.8-4.8-4.8c-2.4,0-4.4,0.9-5.6,1.9l-6.2-4.2c3.2-3.4,7.6-5.3,13.3-5.3C432.5,681.8,435.8,686.7,435.8,693.7
		 M426.3,699.1h-0.8c-4.7,0-7.9,0.9-7.9,3.8c0,2.2,1.7,3,3.8,3c2,0,4-1,4.8-2.1V699.1z"/>
	<rect x="442.2" y="671.3" class="st1" width="9.5" height="40.8"/>
	<path class="st1" d="M484,693.7v18.4h-9.4v-2.7c-1.6,2.3-5.1,3.5-8.1,3.5c-4,0-10.1-1.5-10.1-8.7c0-9.8,12.7-9.8,14.7-9.8h3.5v-0.1
		c0-2.8-1.4-4.8-4.8-4.8c-2.4,0-4.4,0.9-5.6,1.9l-6.2-4.2c3.2-3.4,7.6-5.3,13.3-5.3C480.7,681.8,484,686.7,484,693.7 M474.5,699.1
		h-0.8c-4.7,0-7.9,0.9-7.9,3.8c0,2.2,1.7,3,3.8,3c2,0,4-1,4.8-2.1V699.1z"/>
	<path class="st1" d="M490.3,682.5h9.5v28.5c0,6.5-3,11.8-10.8,11.8c-1.5,0-3-0.2-4.1-0.4v-8.3c3.6,0.4,5.4-0.5,5.4-4.1V682.5z
		 M490.2,674.3c0-2.7,2.2-5,5-5c2.7,0,5,2.2,5,5c0,2.7-2.2,5-5,5C492.4,679.3,490.2,677,490.2,674.3"/>
	<path class="st1" d="M532.1,693.7v18.4h-9.4v-2.7c-1.6,2.3-5.1,3.5-8.1,3.5c-4,0-10.1-1.5-10.1-8.7c0-9.8,12.7-9.8,14.7-9.8h3.5
		v-0.1c0-2.8-1.4-4.8-4.8-4.8c-2.4,0-4.4,0.9-5.6,1.9l-6.2-4.2c3.2-3.4,7.6-5.3,13.3-5.3C528.8,681.8,532.1,686.7,532.1,693.7
		 M522.7,699.1h-0.8c-4.7,0-7.9,0.9-7.9,3.8c0,2.2,1.7,3,3.8,3c2,0,4-1,4.8-2.1V699.1z"/>
	<path class="st1" d="M557.3,681.8V692c-8.4-1.3-9.3,3.5-9.3,8.5v11.7h-9.4v-29.6h9.4v4.5C550.1,683.7,553.8,681.8,557.3,681.8"/>
	<path class="st1" d="M586.7,693.7v18.4h-9.4v-2.7c-1.6,2.3-5.1,3.5-8.1,3.5c-4,0-10.1-1.5-10.1-8.7c0-9.8,12.7-9.8,14.7-9.8h3.5
		v-0.1c0-2.8-1.4-4.8-4.8-4.8c-2.4,0-4.4,0.9-5.6,1.9l-6.2-4.2c3.2-3.4,7.6-5.3,13.3-5.3C583.4,681.8,586.7,686.7,586.7,693.7
		 M577.3,699.1h-0.8c-4.7,0-7.9,0.9-7.9,3.8c0,2.2,1.8,3,3.8,3s4-1,4.8-2.1V699.1z"/>
	<path class="st1" d="M442.5,551.6l-1.4,0.8l0.2,0.2c0.4,0.5,1.1,0.7,1.5,0.3l0.9-1.1l-0.4-0.2C443.1,551.4,442.8,551.5,442.5,551.6
		"/>
	<path class="st1" d="M405.4,552.6l0.2-0.2l-1.4-0.8c-0.2-0.1-0.5-0.1-0.8,0l-0.4,0.2l1,1.1C404.4,553.3,405.1,553.1,405.4,552.6"/>
	<path class="st1" d="M375.6,593.3l47.4,16l48.1-16V490.8h-95.5V593.3z M403.8,588.5h-1.9l-0.3-0.9l-1.6-4.4l-0.5,0.9H399v-2
		l0.5-0.1l0.4-0.1c0.8-0.3,1-0.7,1-1.4c0-0.5-0.2-0.9-0.6-1.2l-0.1-0.1l-0.8-0.6l-1-0.7c2.2-3,5.9-3.7,8.7-3.8v1.9c0,0,0,0.1,0,0.1
		v2.7c0,1.5-0.7,2.9-1.9,3.8l-0.2,0.2c-0.2,0.2-0.4,0.3-0.6,0.4l0,0h0c0,0-0.1,0-0.1,0.1c0,0,0,0,0,0c-0.9,0.7-0.2,1.5-0.2,1.6
		c0,0,0.1,0,0.1,0l4.2,0.6l1.1,3.1H403.8z M419,587.3c0.7-1.3,2.1-1,2.1-1v-34.1c0.7,0.1,1.4,0.2,2.1,0.2c0.8,0,1.6-0.1,2.4-0.2
		v34.2c0,0,1.4-0.3,2.1,1H419z M446.9,581.7l0.4,0.1l0.5,0.1v2h-0.5l-0.5-0.9l-1.6,4.4l-0.3,0.9H443h-5.6l1.1-3.1l4.2-0.6
		c0,0,0.1,0,0.1,0c0,0,0.7-0.9-0.2-1.6c0,0,0,0,0,0c0,0-0.1,0-0.1-0.1l0,0c-0.2-0.1-0.4-0.3-0.6-0.4l-0.2-0.2
		c-1.2-0.9-1.9-2.3-1.9-3.8V576c0,0,0-0.1,0-0.1v-1.9c2.8,0.1,6.5,0.8,8.7,3.8l-1,0.7l-0.8,0.6l-0.1,0.1c-0.4,0.2-0.6,0.7-0.6,1.2
		C445.9,581,446.1,581.4,446.9,581.7 M454.2,557.1c0,2.1-0.7,4.1-2,5.7c-0.4,0.5-1.2,1.3-2.6,2.3c-2.1,1.5-3,2.7-3,4.7
		c0,0,0.7-1.6,4.2-3.5c0.3,1.2,0.8,2.3,1.6,3.1c0.7,0.8,2.7,2.6,5.4,1.4c0.3-0.2,0.5-0.4,0.8-0.6c1.2-1.2,1.3-3.1,0.2-4.4l-0.5-0.6
		c-0.8-1-1.2-2.2-1.2-3.4v-3c0-2.4,2-4.4,4.4-4.4c2.4,0,4.4,2,4.4,4.4v0.6v2c-1.1,0-2-0.9-2-2v-0.6c0-1.3-1.1-2.4-2.4-2.4
		c-1.3,0-2.4,1.1-2.4,2.4v3c0,0.8,0.3,1.5,0.8,2.1l0.5,0.6c1.7,2.1,1.6,5.2-0.3,7.1c-1,1-2.4,1.6-3.8,1.6h-1.3
		c0,0.8-0.1,5.7,4.2,7.2l1,0.3v2h-0.5l-0.7-1.3l-1,6.1l-0.2,0.9h-2H450l1.2-3.1l3.8-0.6h0c0,0,0.7-1.3-0.6-1.5l0,0
		c-0.3,0-0.7-0.1-1-0.2c-1.1-0.3-2.1-0.9-2.9-1.7c-0.6-0.6-1.1-1.3-1.4-2.1c-0.2-0.4-0.3-0.9-0.4-1.3c0,0-0.6-4.3-6-5.7l-8.5-2.2
		l0,0.1c-0.1,0.6-0.6,1-1.2,1h-3l0.7-3.7l8-0.5c0-0.4,0.1-0.8,0.2-1.1l-3.8,0.2l-3.2-6h-0.4c-0.5,0-0.9-0.3-1.1-0.8L429,556h4.2
		l4.6,6.2l3.7-0.1c0.2-0.3,0.5-0.5,0.8-0.8c0.3-0.3,0.7-0.7,1-1c2.5-2.8,2-4.6,2-4.6c-0.4,0.8-0.7,1.3-1.1,1.6h0
		c-0.2,0.2-0.4,0.3-0.6,0.4l-2.9,2c-0.4,0.3-1,0.2-1.2-0.3l-0.6-1.8c0,0,1.5-0.2,2.4-0.5c0.6-0.3,1.2-0.6,1.2-1.2
		c0-0.7-0.6-1.2-1.2-1.2c-0.7,0-1,0.4-1.7,1.1c-0.2,0.3-0.6,0.6-1,0.8c-0.3,0.3-0.8,0.2-1-0.1l-1.8-2l5.5-3.1l1.4-0.8l-1.9,0.4
		l-1.2-0.9c-0.2-0.2-0.2-0.4-0.2-0.6c0,0,0,0,0,0c0-0.1,0.1-0.1,0.1-0.2c0.5-0.8,1.4-1.4,2.2-1.8c3.2-1.6,7.1-0.7,9.7,1.8
		c2.1,2,3.2,4.8,3,7.7C454.2,556.8,454.2,556.9,454.2,557.1C454.2,557.1,454.2,557.1,454.2,557.1 M400.9,520.1c0,0,0-0.1,0-0.1
		c0-7,5.4-12.7,12.1-12.7c2-4.2,6.1-7.1,10.9-7.1c4.8,0,9,2.9,10.9,7.2c6.1,0.7,10.9,6.1,10.9,12.7c0,0,0,0,0,0
		c3.4,2.3,5.7,6.2,5.7,10.8c0,7-5.5,12.7-12.2,12.7c-0.6,0-1.2-0.1-1.8-0.1c-0.5-0.1-1-0.2-1.5-0.4c-2.5,3.3-6.1,5.6-10.3,6.3
		c-0.8,0.1-1.6,0.2-2.4,0.2c-0.7,0-1.4-0.1-2.1-0.2c-4.3-0.6-8-2.9-10.5-6.3c-0.5,0.1-1,0.2-1.6,0.3c-0.5,0.1-1,0.1-1.5,0.1
		c-6.7,0-12.2-5.7-12.2-12.7C395.3,526.3,397.5,522.3,400.9,520.1 M381,559.4L381,559.4v-0.6c0-2.4,2-4.4,4.4-4.4
		c2.4,0,4.4,2,4.4,4.4v3c0,1.2-0.4,2.4-1.2,3.4l-0.5,0.6c-1.1,1.3-1,3.2,0.2,4.4c0.2,0.2,0.5,0.4,0.8,0.6c2.7,1.2,4.7-0.6,5.4-1.4
		c0.8-0.9,1.3-1.9,1.6-3.1c3.5,1.8,4.2,3.5,4.2,3.5c0-1.9-0.9-3.2-3-4.7c-1.4-1-2.2-1.9-2.6-2.3c-1.2-1.5-1.9-3.5-1.9-5.7
		c0,0,0-0.1,0-0.1c0-0.1,0-0.2,0-0.3c-0.2-2.9,0.9-5.7,3-7.7c2.6-2.4,6.4-3.3,9.7-1.8c0.9,0.4,1.7,1,2.2,1.8c0,0,0.1,0.1,0.1,0.2v0
		c0.1,0.2,0,0.5-0.2,0.6l-1.2,0.9l-1.9-0.4l1.4,0.8h0l5.5,3.1l-1.8,2c-0.3,0.3-0.7,0.4-1,0.1c-0.3-0.3-0.7-0.6-1-0.8
		c-0.6-0.7-1-1.1-1.7-1.1c-0.7,0-1.2,0.5-1.2,1.2c0,0.7,0.6,1,1.2,1.2c0.9,0.4,2.4,0.5,2.4,0.5l-0.6,1.8c-0.2,0.5-0.8,0.6-1.2,0.3
		l-2.9-2c-0.2-0.1-0.5-0.3-0.6-0.4h0c-0.4-0.4-0.7-0.8-1.1-1.6c0,0-0.6,1.8,2,4.6c0.3,0.3,0.6,0.7,0.9,1c0.3,0.3,0.6,0.5,0.8,0.8
		l3.7,0.1l4.6-6.2h4.2l-1.3,3.4c-0.2,0.5-0.6,0.8-1.1,0.8h-0.4l-3.2,6l-3.8-0.2c0.1,0.4,0.2,0.7,0.2,1.1l8,0.5l0.7,3.7h-3
		c-0.6,0-1.1-0.4-1.2-1l0-0.1l-8.5,2.2c-5.4,1.4-6,5.7-6,5.7c-0.1,0.4-0.2,0.9-0.4,1.3c-0.3,0.8-0.8,1.5-1.4,2.1
		c-0.8,0.8-1.8,1.4-2.9,1.7c-0.3,0.1-0.6,0.1-1,0.2l0,0c-1.3,0.2-0.6,1.5-0.6,1.5h0l3.8,0.6l1.2,3.1h-5.6h-2l-0.2-0.9l-1-6.1
		l-0.7,1.3h-0.5v-2l1-0.3c4.3-1.5,4.2-6.5,4.2-7.2h-1.3c-1.4,0-2.8-0.6-3.8-1.6c-1.9-2-2-5-0.3-7.1l0.5-0.6c0.5-0.6,0.8-1.3,0.8-2.1
		v-3c0-1.3-1.1-2.4-2.4-2.4c-1.3,0-2.4,1.1-2.4,2.4v0.6c0,1.1-0.9,2-2,2V559.4z"/>
	<path class="st1" d="M547.6,505.1c-0.7-0.7-1.4-1.4-2.2-2.1c-0.2-0.2-1-0.9-1.6-1.3c-0.2-0.1-0.4-0.2-0.5-0.3c0,0-0.1,0-0.1,0
		c0,0,0.5-0.2,1.3-0.4c0.3-0.1,0.6-0.2,1-0.3c0.3-0.1,0.7-0.2,1-0.4c0.2-0.1,0.3-0.1,0.5-0.2c1-0.3,1.8-0.6,1.8-0.6
		c-3.5-5.2-8.3-6.7-8.3-6.7c-3.1-1.3-6.7-2-10.7-1.9c-3.2,0-6.4,0.5-9.6,1.3c-3.1,0.8-5.9,2.3-9,3.1c-1.9,0.5-3.7,0.5-5.4,0
		c-3.5-1-6.9-3.1-10.2-4.6c0.9-0.2,1.7-0.5,2.5-0.8c14.6-4.9,20.8-16.3,20.7-29.5c-0.1-11.4-6.5-22.3-16.4-28
		c-0.3-0.2-0.7-0.4-1-0.5c-0.1-0.1-0.2-0.1-0.3-0.2c0,0,0,0,0,0c-0.1-0.1-0.3-0.1-0.4-0.2c-0.1,0-0.2-0.1-0.3-0.1
		c-0.1-0.1-0.3-0.1-0.4-0.2c-0.2-0.1-0.4-0.2-0.6-0.3c-0.2-0.1-0.3-0.1-0.5-0.2c-0.2-0.1-0.4-0.2-0.6-0.2c-0.2-0.1-0.3-0.1-0.5-0.2
		c-0.1,0-0.1,0-0.2-0.1c-0.1,0-0.2-0.1-0.3-0.1c0,0,0,0,0,0c-0.2-0.1-0.4-0.1-0.6-0.2c-0.2-0.1-0.3-0.1-0.5-0.2
		c-0.2-0.1-0.4-0.1-0.6-0.2c-0.1,0-0.3-0.1-0.4-0.1c0,0,0,0,0,0c-0.2-0.1-0.5-0.1-0.7-0.2h0c-0.1,0-0.1,0-0.2,0h0
		c-1.3-0.3-2.6-0.6-3.9-0.7c0,0,0,0-0.1,0c0,0,0,0-0.1,0c-0.3,0-0.6-0.1-0.9-0.1c0,0,0,0-0.1,0c0,0-0.1,0-0.1,0
		c-0.3,0-0.6-0.1-0.9-0.1c0,0,0,0,0,0c0,0-0.1,0-0.1,0h0c-0.3,0-0.6,0-0.9,0h0c0,0-0.1,0-0.1,0h0c-0.3,0-0.7,0-1,0
		c-1.3,0-2.6,0.1-3.9,0.2c0,0-0.1,0-0.1,0c-0.3,0-0.6,0.1-0.9,0.1c0,0-0.1,0-0.1,0c-1.6,0.2-3.2,0.6-4.8,1.1c0,0,0,0,0,0
		c-0.3,0.1-0.6,0.2-0.9,0.3c0,0,0,0,0,0c-1.6,0.5-3.1,1.2-4.5,2c-0.4,0.2-0.8,0.4-1.1,0.6c0,0,0,0,0,0c-0.3,0.2-0.7,0.4-1,0.6
		c0,0,0,0,0,0c0,0-0.1,0-0.1,0.1h0c-0.3,0.2-0.6,0.4-0.9,0.6c0,0,0,0,0,0c0,0-0.1,0.1-0.1,0.1c0,0,0,0,0,0c-0.3,0.3-0.7,0.5-1,0.8
		c-1.3,1-2.5,2.2-3.5,3.4c-6.3,7.6-7.2,18.9-0.9,26.8c1.7,2.1,3.8,3.9,6.1,5.2c7.4,4.6,13.5,0.9,13.5,0.9c-1.8-1.3-5-6.9-5-6.9
		c0.8,0.1,1.7,0.2,2.5,0.2c7.4,0.3,12.2-5.8,12.2-5.8c-5.4,0.8-9.2-4.2-9.2-4.2c-1.1-1.9-1.2-4-1.2-4c0-5,3.3-6.1,6.2-6.2
		c8.8,0.3,15.7,7.4,15.7,16.2c0,4.2-1.7,8.2-4.5,11.2c-0.4,0.4-0.8,0.9-1.3,1.2c-0.4,0.4-0.9,0.7-1.3,1c-0.4,0.3-0.9,0.6-1.4,0.8
		c-0.5,0.2-0.9,0.5-1.4,0.7c-1.5,0.6-3.1,0.9-4.8,1c-0.6,0-1.1,0.1-1.7,0.1h-0.7v0l-41.7,0l-2.8-1.2c-2.5-1-5.1-3.2-7-5.7
		c4.1-3.6,7.7-8.7,8.4-14.5c1-0.8,1.7-2.1,1.7-3.5c0-1.6-0.9-3.1-2.1-3.9c-1.7-7.8-7.2-13.9-14.1-15.8c-1.2-1.2-2.1-1.9-2.8-2.3
		c-1-0.6-1.5-0.6-1.8-0.6c-0.3,0-0.8,0-1.8,0.6c-0.7,0.4-1.6,1.1-2.8,2.3c-6.9,1.9-12.3,8-14.1,15.8c-1.2,0.7-2.1,2.2-2.1,3.8
		c0,1.4,0.7,2.7,1.6,3.5c0.7,5.8,4.5,11.1,8.8,14.7c-1.1,1.4-3.4,3.8-7.1,5.6l-2.2,1.1l-42.6,0v0h-0.7c-0.3,0-0.6,0-0.9,0
		c-0.3,0-0.6,0-0.9-0.1c-0.2,0-0.5,0-0.7-0.1c-0.1,0-0.1,0-0.2,0c-0.2,0-0.4,0-0.5-0.1c-0.1,0-0.1,0-0.2,0c-0.2,0-0.5-0.1-0.7-0.1
		c-0.2-0.1-0.5-0.1-0.7-0.2c-0.1,0-0.1,0-0.2-0.1c-0.2,0-0.3-0.1-0.5-0.1c-0.1,0-0.1,0-0.2-0.1c-0.2-0.1-0.5-0.1-0.7-0.2
		c-0.5-0.2-1-0.4-1.5-0.7c-0.5-0.2-0.9-0.5-1.4-0.8c-0.5-0.3-0.9-0.7-1.3-1c-0.1-0.1-0.2-0.2-0.3-0.3c-0.3-0.3-0.6-0.6-0.9-0.9
		c-2.8-3-4.6-7.1-4.5-11.2c0.1-8.8,7-15.9,15.7-16.2c2.8,0,6.2,1.2,6.2,6.2c0,0,0,2.1-1.2,4c0,0-3.9,5.1-9.2,4.2
		c0,0,4.7,6.1,12.2,5.8c0.9,0,1.7-0.1,2.5-0.2c0,0-3.2,5.6-5,6.9c0,0,6.1,3.8,13.5-0.9c2.3-1.3,4.4-3.1,6.1-5.2
		c6.2-7.9,5.4-19.2-0.9-26.8c-1.1-1.3-2.2-2.4-3.5-3.4c-0.3-0.3-0.7-0.5-1-0.8c0,0,0,0,0,0c0,0-0.1-0.1-0.1-0.1
		c-0.3-0.2-0.6-0.4-0.9-0.6c0,0,0,0,0,0h0c0,0-0.1,0-0.1-0.1c-0.3-0.2-0.6-0.4-1-0.6c0,0,0,0-0.1,0c0,0,0,0,0,0
		c-0.4-0.2-0.7-0.4-1.1-0.6c-1.5-0.8-3-1.4-4.5-2c0,0,0,0,0,0c-0.3-0.1-0.6-0.2-0.9-0.3c0,0,0,0,0,0c-1.6-0.5-3.2-0.9-4.8-1.1
		c0,0-0.1,0-0.1,0c-0.3,0-0.6-0.1-0.9-0.1c0,0-0.1,0-0.1,0c-1.3-0.2-2.6-0.2-3.9-0.2c-0.3,0-0.7,0-1,0h0h0c0,0-0.1,0-0.1,0
		c-0.3,0-0.6,0-1,0l-0.1,0c0,0,0,0,0,0c-0.3,0-0.6,0-0.9,0.1c0,0-0.1,0-0.1,0l-0.1,0c-0.3,0-0.6,0.1-0.9,0.1c0,0,0,0-0.1,0
		c0,0,0,0-0.1,0c-1.3,0.2-2.7,0.4-3.9,0.7c-0.1,0-0.1,0-0.2,0c-0.2,0.1-0.5,0.1-0.7,0.2c-0.1,0-0.3,0.1-0.4,0.1
		c-0.2,0.1-0.4,0.1-0.6,0.2c-0.2,0.1-0.3,0.1-0.5,0.2c0,0-0.1,0-0.1,0c-0.2,0.1-0.3,0.1-0.5,0.2c-0.1,0-0.2,0.1-0.3,0.1
		c-0.1,0-0.1,0-0.2,0.1c-0.2,0.1-0.4,0.1-0.5,0.2c-0.2,0.1-0.4,0.1-0.6,0.2c-0.2,0.1-0.3,0.1-0.5,0.2c-0.2,0.1-0.4,0.2-0.6,0.3
		c-0.1,0.1-0.3,0.1-0.4,0.2c-0.1,0-0.2,0.1-0.3,0.1c-0.1,0.1-0.3,0.1-0.4,0.2c0,0,0,0,0,0c-0.1,0.1-0.2,0.1-0.3,0.2
		c-0.3,0.2-0.7,0.4-1,0.5c-9.8,5.7-16.3,16.6-16.4,28c-0.1,13.2,6.1,24.6,20.7,29.5c0.8,0.3,1.7,0.5,2.5,0.8
		c-3.3,1.5-6.7,3.6-10.2,4.6c-1.7,0.5-3.4,0.5-5.4,0c-3.1-0.8-5.9-2.3-9-3.1c-3.1-0.8-6.3-1.3-9.6-1.3c-3.9,0-7.5,0.6-10.7,1.9
		c0,0-4.8,1.5-8.3,6.7c0,0,0,0,0,0c0,0,0,0,0,0c0,0,0,0,0.1,0c0.3,0.1,0.9,0.3,1.6,0.6c0.2,0.1,0.3,0.1,0.5,0.2
		c0.3,0.1,0.6,0.2,1,0.3c0.9,0.3,1.8,0.6,2.1,0.7c0.1,0,0.2,0.1,0.2,0.1h0c-0.1,0-0.1,0-0.3,0.1c-0.1,0-0.2,0.1-0.3,0.2
		c-0.1,0-0.1,0.1-0.2,0.1c0,0,0,0-0.1,0c-0.1,0-0.1,0.1-0.2,0.1c0,0,0,0-0.1,0c-0.1,0.1-0.1,0.1-0.2,0.2c0,0,0,0-0.1,0.1
		c-0.1,0-0.1,0.1-0.2,0.1c0,0-0.1,0-0.1,0.1c-0.1,0-0.1,0.1-0.1,0.1c0,0,0,0-0.1,0c-0.1,0-0.1,0.1-0.1,0.1c-0.1,0.1-0.1,0.1-0.2,0.1
		c0,0,0,0,0,0c0,0-0.1,0.1-0.1,0.1c-0.8,0.6-1.5,1.3-2.2,2.1c-1.4,1.5-2.5,3.1-3.3,5c-1.9,4.2-2,9.1-1.3,13.6c2.7-1.9,5.5-4,8.5-5.5
		c2.9-1.5,6-2.7,9.3-3c-9,5.9-14.1,16.9-15,27.4c-0.1,0.7-0.1,1.4-0.1,2.1c-0.4,14.9,8.3,29.4,21.7,36c8.1,4,18,5,26.9,2.8
		c10.8-3.1,14.9-9.6,14.9-9.6l0.5-1.1v32.3l61.8,20.8l62.7-20.8v-32.3l0.5,1.1c0,0,4.1,6.5,14.9,9.6c8.9,2.3,18.8,1.2,26.9-2.8
		c13.4-6.6,22-21.1,21.7-36c0-0.7-0.1-1.4-0.1-2.1c-0.9-10.5-6-21.5-15-27.4c3.3,0.3,6.4,1.4,9.3,3c3,1.6,5.7,3.6,8.5,5.5
		c0.6-4.5,0.5-9.4-1.3-13.6C550.1,508.3,548.9,506.6,547.6,505.1 M361.2,542.9c-0.2-0.5-0.5-0.9-0.8-1.4c0-0.1-0.1-0.1-0.1-0.2
		c-0.1-0.2-0.2-0.3-0.3-0.5l-0.1-0.2c-0.1-0.2-0.3-0.4-0.4-0.6c-0.4-0.5-0.8-1-1.2-1.5c-4.7-5.7-11.9-7.5-19-5.4
		c0.2-0.1,1.6,1.7,1.7,1.9c1.1,1.3,2.1,2.5,3.1,3.9c2.5,3.6,4,7.8,4,12.2c0,0-2.4-3-5.3-3c1.1,5.4,3,12.7-1.9,16.8
		c-3.7,3.1-9,2.3-13.1,0.5c-6.6-2.8-11.5-8.6-12.9-15.7c-0.3-1.4-0.4-2.8-0.4-4.3c0-0.4,0-0.8,0-1.1c0-0.1,0-0.2,0-0.3
		c0.1-0.7,0.1-1.5,0.3-2.2c0-0.1,0-0.2,0.1-0.3c0.1-0.4,0.1-0.7,0.2-1.1v0c0.1-0.3,0.2-0.6,0.2-0.9c0-0.1,0.1-0.2,0.1-0.3
		c0.1-0.2,0.1-0.4,0.2-0.6c0-0.1,0.1-0.2,0.1-0.3c0.1-0.2,0.2-0.4,0.2-0.6c0-0.1,0.1-0.2,0.1-0.3c0.2-0.6,0.5-1.2,0.8-1.7
		c0-0.1,0.1-0.2,0.1-0.3c0.1-0.2,0.2-0.4,0.3-0.6c0.1-0.1,0.1-0.2,0.2-0.3c0.1-0.2,0.2-0.4,0.4-0.6c0.1-0.1,0.1-0.2,0.2-0.3
		c0.2-0.3,0.4-0.5,0.6-0.8c0.1-0.1,0.2-0.3,0.3-0.4c0.1-0.1,7.8-12.7,37.7-25.9l4.7-2V542.9z M361.2,499.9c-0.4,0.2-0.8,0.3-1.2,0.5
		c-0.8,0.4-1.6,0.7-2.3,1c0,0-0.1,0-0.1,0c-0.1,0-0.2,0.1-0.2,0.1c-0.1,0-0.1,0.1-0.2,0.1c0,0-0.1,0-0.1,0c-0.1,0-0.1,0.1-0.2,0.1
		c-0.3,0.1-0.6,0.3-0.7,0.3c0,0-0.1,0-0.1,0c-0.1,0-0.1,0.1-0.1,0.1c-33.3,14.4-41.1,28.3-41.1,28.3c-0.4,0.5-0.7,1.1-1.1,1.6
		c0,0.1-0.1,0.2-0.1,0.2c-0.1,0.2-0.2,0.4-0.3,0.6c0,0.1-0.1,0.2-0.1,0.2c-0.1,0.3-0.3,0.5-0.4,0.8c-0.1,0.3-0.3,0.5-0.4,0.8
		l-0.1,0.3c-0.1,0.2-0.2,0.4-0.3,0.6c0,0.1-0.1,0.2-0.1,0.2c-0.2,0.6-0.5,1.2-0.7,1.8c-3.1,9.7,0.1,20.9,7.8,27.6
		c3.4,3,7.9,5.1,12.4,5.9c8.5,1.5,17-4.2,17-13.2c0-0.5,0-1.1-0.1-1.6c0-0.3-0.1-0.6-0.1-0.9c0,0,0.1,0.1,0.3,0.2
		c0.1,0.1,0.1,0.1,0.2,0.2c0.1,0.1,0.2,0.3,0.4,0.5c0,0,0.1,0.1,0.1,0.2c0.1,0.1,0.1,0.2,0.2,0.3c0,0,0,0.1,0.1,0.1
		c0.1,0.1,0.1,0.2,0.2,0.3c0,0,0,0,0,0c0.1,0.1,0.1,0.3,0.2,0.5l0,0c0.1,0.3,0.2,0.6,0.3,0.9c0,0,0,0,0,0c0.1,0.4,0.2,0.9,0.3,1.4
		c0,0,0,0.1,0,0.1c0,0.1,0,0.2,0,0.3c0,0.1,0,0.1,0,0.2c0,0.2,0,0.5,0,0.7c0,0.1,0,0.2,0,0.2c0,0.1,0,0.2,0,0.2c0,0,0,0,0,0
		c0,0.3,0,0.6-0.1,1c0,0.1,0,0.3-0.1,0.4c0,0,0,0.1,0,0.1c0.1-0.4,0.7-1,0.9-1.4c0.3-0.5,0.5-1.1,0.7-1.6c0.2-0.5,0.4-1.1,0.5-1.6
		c0.1-0.5,0.2-1,0.3-1.4c0.1-0.6,0.2-1.2,0.2-1.8c0.1-2,0-4-0.4-5.9c-0.1-0.8-0.3-1.6-0.5-2.4c-0.5-2-1.2-4-2-5.9
		c-0.7-1.4-1.5-2.8-2.4-4c0,0,0,0,0-0.1c-0.2-0.2-0.4-0.4-0.6-0.7v0c0.1,0,0.8,0.1,1.7,0.4c0.2,0.1,0.5,0.2,0.8,0.3
		c0.2,0.1,0.4,0.2,0.6,0.3c0.1,0.1,0.2,0.1,0.3,0.2c0.2,0.1,0.4,0.2,0.6,0.3c1.4,0.8,2.9,2,4.3,3.9c5.1,7.2,7.1,17.8,3.2,26
		c-4,8.5-14.3,11.9-23.1,11.8c-18.9-0.1-34.2-15.6-34.1-34.4c0.1-11.7,6.2-20.9,14.5-28.6c0.5-0.5,1-0.9,1.6-1.4
		c0.8-0.7,2.5-2.1,4.2-3.4c0.1,0,0.1,0,0.1,0c0,0,0,0-0.1,0c1.6-1.2,3.2-2.4,4-2.7c0,0-4.1-0.4-8.7,2c-3.9-0.3-9.5,0-15.2,2.9
		c-1.4,0.7-2.6,1.4-3.8,2.2c0-0.1,0-0.2,0-0.3c0-0.1,0-0.3,0-0.5c0-0.3,0-0.6,0.1-1c0-0.1,0-0.2,0.1-0.4v0c0-0.2,0.1-0.4,0.1-0.5
		c0,0,0-0.1,0-0.1c0-0.2,0.1-0.4,0.1-0.6v0c0.1-0.3,0.2-0.6,0.3-1c0.1-0.1,0.1-0.3,0.2-0.4c0,0,0-0.1,0.1-0.1c0-0.1,0.1-0.2,0.1-0.3
		c0,0,0-0.1,0.1-0.1c0.1-0.2,0.1-0.3,0.2-0.5c2.8-5.4,9.1-8,13.8-9.2l0.1,0v-0.1c0-0.1-0.6-3.2-8.7-3.4c0.4-0.3,0.9-0.6,1.4-0.9
		c1.9-1,4.1-1.7,6.7-2.1c3-0.5,6.3-0.4,9.6,0.2c3,0.6,5.8,1.6,9.1,2.9c0.3,0.1,0.7,0.3,1,0.4c0.8,0.3,1.6,0.7,2.5,1.1c0,0,0,0,0.1,0
		c0.3,0.1,0.7,0.3,1,0.5c0,0,0,0,0,0c0,0,0,0,0.1,0c0.2,0.1,0.3,0.1,0.5,0.2c0.1,0,0.1,0.1,0.2,0.1c0.1,0.1,0.3,0.1,0.4,0.2
		c0.1,0,0.1,0,0.2,0.1c0.2,0.1,0.4,0.2,0.5,0.2c0,0,0.1,0,0.1,0.1c0.1,0.1,0.3,0.1,0.4,0.2c0.1,0,0.1,0.1,0.2,0.1
		c0.1,0.1,0.3,0.1,0.4,0.2c0,0,0.1,0,0.1,0.1c0.2,0.1,0.3,0.2,0.5,0.3c0,0,0.1,0,0.1,0.1c0.1,0.1,0.3,0.1,0.4,0.2
		c0,0,0.1,0.1,0.1,0.1c0.4,0.2,0.9,0.5,1.2,0.7c0.5,0.3,1,0.6,1.4,0.9c0,0,0.1,0,0.1,0.1c0.3,0.2,0.6,0.5,0.8,0.7
		c0.1,0.1,0.3,0.3,0.4,0.4c0,0,0,0,0,0c0,0,0,0,0,0c0,0,0,0,0,0v0c0,0,0,0,0-0.1c0,0,0,0,0,0c0,0,0,0,0-0.1c0,0,0,0,0,0
		c0,0,0,0,0-0.1c0,0,0-0.1,0-0.1c0,0,0,0,0-0.1c0-0.1,0-0.1-0.1-0.2c0,0,0,0,0-0.1c0,0,0-0.1,0-0.1c0,0,0-0.1,0-0.1c0,0,0-0.1,0-0.1
		c0,0,0,0,0-0.1c0-0.1,0-0.1-0.1-0.2c0,0,0-0.1,0-0.1c0-0.1-0.1-0.2-0.1-0.3c0,0,0-0.1,0-0.1c0,0,0-0.1,0-0.1c0-0.1-0.1-0.1-0.1-0.2
		c0,0,0-0.1-0.1-0.1c0-0.1-0.1-0.2-0.1-0.3c0,0,0,0,0,0l-0.1-0.1c-0.1-0.1-0.1-0.2-0.2-0.3c0,0,0,0,0,0c0,0-0.1-0.1-0.1-0.1
		c-0.1-0.1-0.1-0.2-0.2-0.2c0,0-0.1-0.1-0.1-0.1l-0.1-0.1c-0.1-0.1-0.1-0.1-0.2-0.2c0-0.1-0.1-0.1-0.1-0.2c0,0-0.1-0.1-0.1-0.1
		c0,0,0,0,0,0c-0.1-0.1-0.2-0.3-0.3-0.4c0,0-0.1-0.1-0.1-0.1c-0.1-0.1-0.1-0.2-0.2-0.2c-0.1-0.1-0.1-0.1-0.2-0.2h0l6-2.8
		c0.2-0.1,0.4-0.2,0.6-0.3h0c0,0,0.1,0,0.1,0c0.7-0.3,1.3-0.6,1.9-0.9c0,0,0.1,0,0.1-0.1c0.2-0.1,0.4-0.2,0.7-0.3
		c0.3-0.1,0.5-0.2,0.8-0.4c0,0,8.9-4.1,7.9-7.1c0,0-4.1-0.2-11.2-2.9c0,0,0,0,0,0c0,0-0.1,0-0.1,0c0,0,0,0,0,0c0,0,0,0,0,0
		c-0.2-0.1-0.4-0.2-0.6-0.2c0,0,0,0,0,0c-0.1,0-0.2-0.1-0.3-0.1c0,0,0,0-0.1,0c-0.1,0-0.2-0.1-0.3-0.1l0,0c-0.4-0.1-0.7-0.3-1-0.5
		c0,0,0,0,0,0c-0.1-0.1-0.3-0.2-0.5-0.3c-0.7-0.4-1.3-0.8-1.9-1.2c0,0,0,0-0.1,0c-0.5-0.4-1-0.7-1.5-1.2l-0.1,0
		c-0.3-0.2-0.5-0.4-0.8-0.7c-0.1-0.1-0.1-0.1-0.2-0.1l0,0c-0.4-0.4-0.8-0.8-1.2-1.2c0,0,0,0,0,0c-0.1-0.1-0.2-0.2-0.2-0.2
		c-0.2-0.2-0.4-0.4-0.5-0.6c-0.1-0.1-0.1-0.1-0.1-0.2c-0.2-0.2-0.4-0.5-0.6-0.7c0,0,0,0,0,0c-0.2-0.2-0.4-0.5-0.6-0.8
		c0,0-0.1-0.1-0.1-0.1c-0.2-0.3-0.4-0.6-0.6-0.9c0,0-0.1-0.1-0.1-0.1c-0.1-0.2-0.3-0.4-0.4-0.6v0c-0.1-0.1-0.1-0.2-0.2-0.3
		c-0.4-0.6-0.8-1.3-1.1-1.9l0-0.1c-0.1-0.2-0.2-0.4-0.3-0.6v0c0,0,0-0.1-0.1-0.1c-0.1-0.3-0.2-0.5-0.4-0.8c0-0.1-0.1-0.2-0.1-0.3
		c-0.1-0.3-0.2-0.5-0.3-0.8c0,0,0-0.1-0.1-0.1v0c-0.2-0.6-0.4-1.3-0.6-1.9c0-0.1-0.1-0.2-0.1-0.3c-0.1-0.2-0.1-0.4-0.2-0.7v0
		c0-0.1,0-0.1,0-0.1c-0.1-0.3-0.2-0.7-0.2-1c0-0.1,0-0.1,0-0.2v0c-0.1-0.3-0.1-0.7-0.2-1c0,0,0-0.1,0-0.1c-0.1-0.3-0.1-0.6-0.1-0.9
		c0-0.1,0-0.2,0-0.3c0-0.3-0.1-0.5-0.1-0.8c0-0.1,0-0.3,0-0.4c0-0.2,0-0.5,0-0.7c0-0.1,0-0.1,0-0.2c0-0.4,0-0.8,0-1.2
		c0.1-15.4,12.7-27.9,28.1-27.8c7.9,0,17.2,3.6,21.5,10.6c2.9,4.7,3.6,10.5,1.4,15.6c-0.9,2.2-2.4,4.1-4.1,5.7
		c-1.7,1.5-3.7,2.5-5.9,3.3c0.4-0.7,1.7-3.1,2.3-5.9c0,0,1.6-5.8-1.3-10.4c0,0,0,0,0,0.1v0c0,0,0,0,0,0c0,0,0,0,0,0h0
		c0,0.1,0,0.2,0,0.4c0,0,0,0,0,0c0,0.3,0.1,0.8,0.1,1.3v0.1c0,0.1,0,0.3,0,0.4c0,0,0,0,0,0.1v0c0,0.1,0,0.3,0,0.4c0,0,0,0,0,0.1
		c0,0.1,0,0.3,0,0.4c0,0,0,0,0,0c0,0.1,0,0.3-0.1,0.4c0,0,0,0,0,0c0,0.1-0.1,0.3-0.1,0.4c0,0,0,0,0,0.1c0,0.1-0.1,0.3-0.1,0.4v0
		c0,0,0,0.1,0,0.1c0,0.1-0.1,0.3-0.1,0.4l0,0c0,0,0,0,0,0.1c0,0.1,0,0.1-0.1,0.2l0,0.1h0c0,0.1-0.1,0.1-0.1,0.2v0c0,0,0,0.1-0.1,0.1
		c0,0.1-0.1,0.1-0.1,0.2c0,0,0,0,0,0c-0.1,0.2-0.3,0.4-0.5,0.6c-1.3,0.9-3.1,1.9-5.6,1.9c-0.6,0-1.2-0.1-1.8-0.2
		c4.6-3.3,4.6-9.1,4.6-9.4c0-4.8-2.7-9-7.4-10.2c-9.2-2.4-19.2,4.7-22.1,13.2c-4.2,12,3.9,27,17.1,27.6v0l3.1,0.1V499.9z
		 M408.6,453.2c0-0.5,0-1,0.1-1.5l3-0.7v4.4l-3-1.7C408.6,453.5,408.6,453.4,408.6,453.2 M415.7,450l5.6-1.3v12.1l-5.6-3.2V450z
		 M425.4,448.7l5.6,1.4v7.6l-5.6,3.2V448.7z M435,451.1l3.1,0.7c0,0.5,0.1,0.9,0.1,1.4c0,0.1,0,0.3,0,0.4l-3.1,1.8V451.1z
		 M421.3,436.2l2.1-1.7l2.1,1.7c5.5,0.9,10,5.4,11.8,11.3l-13.9-3.4l-13.9,3.3C411.3,441.5,415.8,437.1,421.3,436.2 M410,459.1
		l13.4,7.5l13.4-7.6c-3,6.6-10.2,11.5-13.4,11.5C420.5,470.5,413.1,465.7,410,459.1 M416.7,472.6c2.5,1.5,4.8,2.3,6.7,2.3
		c2,0,4.5-0.9,7.1-2.5c1.7,2.3,3.7,4.2,5.9,5.7c-4.7,4-10.9,6.2-12.7,6.8c-2-0.5-8.7-2.5-13.2-6.7
		C413.6,476.3,415.6,474.1,416.7,472.6 M481.2,601.8L423,621.2l-57.4-19.4V481.1h41.6c6.3,6,15.8,8.2,16.2,8.3l0.6,0.1l0.5-0.1
		c0.4-0.1,9-2.6,15.4-8.3h41.4V601.8z M485.6,504.7l4.7,2c30,13.2,37.6,25.8,37.7,25.9c0.1,0.1,0.2,0.3,0.3,0.4
		c0.8,1.1,1.5,2.3,2.1,3.6c0.6,1.3,1,2.6,1.4,3.9c0.4,1.6,0.6,3.3,0.6,5c0,1.5-0.1,2.9-0.4,4.3c-1.4,7-6.3,12.9-12.9,15.7
		c-4.1,1.7-9.4,2.6-13.1-0.5c-4.9-4.1-3-11.4-1.9-16.8c-3,0-5.3,3-5.3,3c0.1-4.4,1.5-8.6,4-12.2c0.9-1.3,2-2.6,3.1-3.9
		c0.1-0.2,1.5-2,1.7-1.9c-7.1-2.1-14.2-0.3-19,5.4c-0.4,0.5-0.8,1-1.2,1.5c-0.5,0.7-1,1.3-1.4,2.1c-0.1,0.2-0.3,0.5-0.4,0.7V504.7z
		 M548.5,516.6c-1.2-0.8-2.4-1.6-3.8-2.2c-5.7-2.9-11.4-3.2-15.2-2.9c-4.6-2.4-8.7-2-8.7-2c0.8,0.3,2.4,1.4,4,2.7c0,0-0.1,0-0.1,0
		c0,0,0.1,0,0.1,0c1.7,1.3,3.4,2.7,4.2,3.4c0.5,0.5,1,0.9,1.6,1.4c8.3,7.7,14.5,17,14.5,28.6c0.1,18.9-15.2,34.3-34.1,34.4
		c-8.8,0.1-19.1-3.3-23.1-11.8c-3.9-8.2-1.9-18.8,3.2-26c3.2-4.5,7.9-5.3,8.3-5.4c-3.2,3.6-4.7,8.3-5.5,13
		c-0.6,3.6-0.6,7.4,0.7,10.8c0.3,0.8,0.7,1.6,1.1,2.3c0.1,0.2,0.5,0.5,0.5,0.7c-1-5.8,2.1-8,2.1-8c0,0.3-0.1,0.6-0.1,0.9
		c-0.1,0.5-0.1,1.1-0.1,1.6c0,9.1,8.5,14.7,17,13.2c4.5-0.8,9-2.9,12.4-5.9c7.7-6.7,11-17.8,7.8-27.6c-0.1-0.3-0.2-0.7-0.3-1
		c-0.4-1-0.8-1.9-1.2-2.8c-0.5-0.9-1-1.8-1.5-2.6c-0.2-0.3-0.4-0.6-0.6-0.8c0,0-7.8-13.9-41.1-28.3c0,0,0,0-0.1-0.1
		c-0.1,0-0.2-0.1-0.3-0.2c-0.1,0-0.2-0.1-0.2-0.1c-0.1-0.1-0.3-0.1-0.4-0.2c-0.7-0.3-1.7-0.8-2.8-1.2c-0.4-0.2-0.8-0.4-1.2-0.5
		v-18.6l3.1-0.1l0,0c13.2-0.5,21.3-15.6,17.1-27.6c-3-8.5-12.9-15.6-22.1-13.2c-4.7,1.2-7.5,5.4-7.4,10.2c0,0.2,0,6.1,4.6,9.4
		c-0.6,0.1-1.2,0.1-1.8,0.2c-2.5,0-4.2-1-5.6-1.9c-0.1-0.1-0.2-0.2-0.3-0.3c-0.1-0.1-0.1-0.2-0.2-0.3c0,0,0-0.1,0-0.1
		c0-0.1-0.1-0.1-0.1-0.2c0,0,0-0.1-0.1-0.1c0-0.1-0.1-0.1-0.1-0.2l-0.1-0.1c0-0.1-0.1-0.1-0.1-0.2c0,0,0,0,0-0.1c0,0,0,0,0,0
		c-0.1-0.1-0.1-0.3-0.1-0.4c0,0,0,0,0-0.1c0-0.1-0.1-0.3-0.1-0.4c0,0,0,0,0-0.1c0-0.1-0.1-0.3-0.1-0.4c0,0,0,0,0,0
		c0-0.2,0-0.3-0.1-0.4c0,0,0,0,0,0c0-0.1,0-0.3,0-0.4c0,0,0,0,0-0.1c0-0.1,0-0.3,0-0.4c0,0,0,0,0-0.1c0-0.1,0-0.3,0-0.4v-0.1
		c0-0.2,0-0.4,0-0.5c0-0.1,0-0.2,0-0.2c0-0.2,0-0.4,0-0.5c0,0,0,0,0,0c0-0.1,0-0.3,0-0.4c0,0,0,0,0,0v0c0,0,0-0.1,0-0.1c0,0,0,0,0,0
		c0,0,0,0,0,0c-2.9,4.6-1.3,10.4-1.3,10.4c0.6,2.8,1.9,5.2,2.3,5.9c-2.1-0.8-4.2-1.8-5.9-3.3c-1.8-1.6-3.2-3.5-4.1-5.7
		c-2.2-5.1-1.6-10.9,1.4-15.6c4.4-6.9,13.6-10.5,21.5-10.6c15.4-0.1,28.1,12.4,28.1,27.8c0,0.4,0,0.7,0,1.1c0,0.1,0,0.2,0,0.3
		c0,0.2,0,0.5,0,0.7c0,0.1,0,0.2,0,0.4c0,0.2,0,0.5-0.1,0.7c0,0.1,0,0.2,0,0.4c0,0.3-0.1,0.6-0.1,0.8c0,0.1,0,0.1,0,0.2
		c-0.1,0.3-0.1,0.7-0.2,1c0,0.1,0,0.2-0.1,0.3c-0.1,0.2-0.1,0.5-0.2,0.7c0,0.1-0.1,0.2-0.1,0.3c-0.1,0.2-0.1,0.4-0.2,0.7
		c0,0.1-0.1,0.2-0.1,0.3c-0.1,0.2-0.1,0.5-0.2,0.7c0,0.1-0.1,0.2-0.1,0.3c-0.1,0.3-0.2,0.6-0.3,1c0,0.1,0,0.1-0.1,0.2
		c-0.1,0.3-0.2,0.5-0.3,0.8c0,0.1-0.1,0.2-0.1,0.3c-0.1,0.2-0.2,0.4-0.3,0.6c0,0.1-0.1,0.2-0.1,0.3c-0.1,0.2-0.2,0.4-0.3,0.6
		c0,0.1-0.1,0.2-0.1,0.3c-0.3,0.6-0.6,1.2-1,1.7c-0.1,0.1-0.1,0.2-0.2,0.3c-0.1,0.2-0.2,0.4-0.4,0.6c-0.1,0.1-0.1,0.2-0.2,0.3
		c-0.1,0.2-0.3,0.4-0.4,0.5c-0.1,0.1-0.1,0.2-0.2,0.3c-0.2,0.2-0.3,0.4-0.5,0.6c0,0-0.1,0.1-0.1,0.1c-0.2,0.3-0.4,0.5-0.6,0.7
		c-0.1,0.1-0.1,0.1-0.2,0.2c-0.2,0.2-0.3,0.4-0.5,0.5c-0.1,0.1-0.2,0.2-0.2,0.2c-0.2,0.2-0.3,0.3-0.5,0.5c-0.1,0.1-0.2,0.2-0.2,0.2
		c-0.2,0.2-0.3,0.3-0.5,0.5c-0.1,0.1-0.1,0.1-0.2,0.2c-0.2,0.2-0.5,0.4-0.7,0.6c0,0-0.1,0.1-0.1,0.1c-0.2,0.2-0.4,0.3-0.6,0.5
		c-0.1,0.1-0.2,0.1-0.3,0.2c-0.2,0.1-0.4,0.3-0.5,0.4c-0.1,0.1-0.2,0.1-0.3,0.2c-0.2,0.1-0.4,0.3-0.6,0.4c-0.1,0.1-0.2,0.1-0.3,0.2
		c-0.3,0.2-0.6,0.3-0.8,0.5c-0.2,0.1-0.3,0.2-0.5,0.3c-0.7,0.4-1.3,0.6-2.3,1c0,0,0,0,0,0c0,0,0,0,0,0c0,0-0.1,0-0.1,0l0,0
		c-7,2.7-11.2,2.9-11.2,2.9c-1,3,7.9,7.1,7.9,7.1c0.3,0.1,0.5,0.3,0.8,0.4c0.2,0.1,0.4,0.2,0.7,0.3c0.7,0.3,1.4,0.7,2.1,1
		c0,0,0.1,0,0.1,0c0.2,0.1,0.4,0.2,0.6,0.3l0,0l6,2.8c-0.1,0.1-0.3,0.3-0.4,0.4c0,0,0,0.1-0.1,0.1c-0.1,0.1-0.2,0.3-0.3,0.4
		c0,0-0.1,0.1-0.1,0.1c-0.1,0.1-0.2,0.2-0.3,0.4c0,0-0.1,0.1-0.1,0.1c-0.1,0.1-0.2,0.2-0.2,0.3c0,0-0.1,0.1-0.1,0.1
		c-0.1,0.1-0.1,0.2-0.2,0.3c0,0-0.1,0.1-0.1,0.1c-0.1,0.1-0.1,0.2-0.2,0.3c0,0,0,0.1-0.1,0.1c-0.1,0.1-0.1,0.2-0.1,0.3
		c0,0,0,0.1,0,0.1c0,0.1-0.1,0.2-0.1,0.3c0,0,0,0.1,0,0.1c0,0.1-0.1,0.2-0.1,0.2c0,0,0,0.1,0,0.1c0,0.1-0.1,0.1-0.1,0.2
		c0,0,0,0,0,0.1c0,0.1,0,0.1-0.1,0.2c0,0,0,0,0,0.1c0,0.1,0,0.1,0,0.1c0,0,0,0,0,0.1c0,0,0,0.1,0,0.1c0,0,0,0,0,0c0,0,0,0.1,0,0.1
		c0,0,0,0,0,0c0,0,0,0,0,0c0,0,0,0,0,0c0.1-0.1,0.2-0.3,0.4-0.4c0.1-0.1,0.3-0.3,0.5-0.4c0.3-0.2,0.5-0.4,0.9-0.6
		c0.2-0.1,0.4-0.3,0.7-0.4c0.1-0.1,0.2-0.1,0.4-0.2c0.2-0.1,0.5-0.3,0.8-0.4c1.4-0.8,3.1-1.6,4.7-2.4c0.7-0.3,1.4-0.6,2.1-0.9
		c0.5-0.2,1.1-0.4,1.5-0.6c0.3-0.1,0.7-0.3,1-0.4c3.3-1.4,6.1-2.4,9.1-2.9c3.3-0.6,6.7-0.7,9.6-0.2c2.6,0.4,4.8,1.1,6.7,2.1
		c0.5,0.2,1,0.5,1.4,0.9c-8.1,0.2-8.7,3.3-8.7,3.4v0.1l0.1,0c4.7,1.2,11,3.8,13.8,9.2c0.3,0.5,0.5,1,0.7,1.5c0.1,0.3,0.2,0.7,0.3,1
		c0.1,0.5,0.2,0.9,0.3,1.3c0.1,0.5,0.1,1,0.1,1.3C548.5,516.1,548.5,516.4,548.5,516.6"/>
	<path class="st1" d="M442.1,425v-3.7l-3,1.9C440.1,423.8,441.1,424.4,442.1,425"/>
	<path class="st1" d="M423.2,425.8c0,0,1.2,1.5,3.2,2.6v-9c-2.2-0.2-4.3-0.1-6.3,0.1v8.9C422,427.3,423.2,425.8,423.2,425.8"/>
	<path class="st1" d="M426.4,419.4v-0.7h-6.3v0.8C422,419.3,424.2,419.2,426.4,419.4"/>
	<path class="st1" d="M430.1,382.3l-6.7-11.6l-6.4,11.2c1.8-0.3,3.6-0.5,5.5-0.5C425.2,381.4,427.8,381.7,430.1,382.3"/>
	<path class="st1" d="M442.1,425c-1-0.7-2-1.2-3-1.8l-3.6,2.3c4.2,1.8,21.5,8.1,36.8-2.7l-10.1-9.2l7.3-17c0,0-11.3,9.4-26.7,4.1
		l-0.7-0.3v20.8V425z"/>
	<path class="st1" d="M426.4,418.7v0.7c2.1,0.2,4.4,0.6,6.6,1.3v-0.8c-0.8-3.9-1.8-9.2-2.7-13.9h-4.1v5.9H420V406h-5.7v-5.8h5.7
		v-5.8h6.3v5.8h3.1c-0.5-2.9-0.8-4.8-0.8-4.8l13.5,5.2v-10c0,0-7.3-4.6-17-5.4c-4.5-0.1-9,0.7-12.8,2.6c0-0.3,0-0.7,0-1
		c-2.5,0.9-5,2.1-7.4,3.9V425c0,0,6.2-4.5,15.2-5.5v-0.8H426.4z"/>
	<path class="st1" d="M425.1,385.1c-4-0.3-8.4,0-12.9,1.5c0,0.3,0,0.7,0,1C416.1,385.8,420.6,385,425.1,385.1"/>
	<path class="st1" d="M429.4,400.2h2.5v5.8h-1.5c0.8,4.7,1.8,10.1,2.7,13.9v-1.2l9,2.6v-20.8l-13.5-5.2
		C428.6,395.4,428.9,397.3,429.4,400.2"/>
	<path class="st1" d="M433,419.9v0.8c0.1,0,0.1,0,0.2,0.1C433.2,420.5,433.1,420.2,433,419.9"/>
	<path class="st1" d="M439.1,423.3l3-1.9l-9-2.6v1.2c0.1,0.3,0.1,0.6,0.2,0.9C435.1,421.4,437.1,422.2,439.1,423.3"/>
	<path class="st1" d="M493.6,754.7c-2-0.9-4.2-1.1-6.3-0.3c-2.1,0.7-3.8,2.3-4.7,4.3c-10.8,22.8-34,37.5-59.2,37.5
		c-25.2,0-48.4-14.7-59.2-37.5c-0.9-2-2.6-3.5-4.7-4.3c-2.1-0.8-4.3-0.6-6.3,0.3c-4.1,2-5.9,6.9-3.9,11c13.5,28.5,42.6,47,74.1,47
		c31.5,0,60.7-18.4,74.1-47C499.5,761.6,497.7,756.7,493.6,754.7"/>
	<path class="st1" d="M870.6,491.4l9.6,6.3c-3.5,5-9.4,8.2-16.5,8.2c-11.8,0-20.2-8.7-20.2-20.3c0-11.5,8.4-20.3,20.2-20.3
		c7.1,0,12.9,3.1,16.5,8.2l-9.6,6.3c-1.5-2-3.8-3.3-6.8-3.3c-5.4,0-8.6,4-8.6,9.1c0,5.2,3.2,9.1,8.6,9.1
		C866.8,494.6,869.1,493.4,870.6,491.4"/>
	<path class="st1" d="M884.5,468.8c0-2.9,2.3-5.2,5.3-5.2c2.9,0,5.3,2.3,5.3,5.2c0,2.9-2.4,5.3-5.3,5.3
		C886.8,474.1,884.5,471.7,884.5,468.8 M884.7,476.8h10.1v28.4h-10.1V476.8z"/>
	<path class="st1" d="M929.8,476.8v28.4h-10.1v-3c-1.5,2.1-3.9,3.8-7.8,3.8c-8.8,0-10.4-7.2-10.4-11.3v-17.8h10.1v15.4
		c0,2.2,1.6,3.9,4.1,3.9c2.5,0,4-1.7,4-3.9v-15.4H929.8z"/>
	<path class="st1" d="M965.5,466v39.2h-10.1v-2.3c-1.6,1.8-4,3-7.4,3c-8.8,0-13.2-7.5-13.2-14.9c0-7.5,4.4-14.9,13.2-14.9
		c3.4,0,5.8,1.2,7.4,3V466H965.5z M955.2,491c0-3-2.1-5.1-5.1-5.1c-3.1,0-5.1,2.1-5.1,5.1c0,2.9,2,5,5.1,5
		C953,496,955.2,494,955.2,491"/>
	<path class="st1" d="M997.8,487.5v17.6h-10.1v-2.6c-1.5,2.2-4.8,3.4-7.6,3.4c-3.5,0-9.5-1.5-9.5-8.3c0-9.5,11.9-9.5,13.8-9.5h3.3
		c0-2.6-1.5-4.1-4.1-4.1c-1.9,0-3.9,0.7-5,1.6l-6.4-4.4c3.1-3.3,7.5-5.1,12.9-5.1C994.1,476.1,997.8,480.8,997.8,487.5 M987.7,493
		h-0.7c-4.5,0-6.2,1.1-6.2,2.9c0,1.3,1,2.3,2.8,2.3c1.9,0,3.4-0.9,4.1-2V493z"/>
	<path class="st1" d="M1033.5,466v39.2h-10.1v-2.3c-1.6,1.8-4,3-7.4,3c-8.8,0-13.2-7.5-13.2-14.9c0-7.5,4.4-14.9,13.2-14.9
		c3.4,0,5.8,1.2,7.4,3V466H1033.5z M1023.2,491c0-3-2.1-5.1-5.1-5.1c-3.1,0-5.1,2.1-5.1,5.1c0,2.9,2,5,5.1,5
		C1021,496,1023.2,494,1023.2,491"/>
	<path class="st1" d="M862.5,529.3v63.8H846v-21.3c-2.6,3-6.4,4.9-12,4.9c-14.4,0-21.5-12.1-21.5-24.2c0-12.1,7.1-24.2,21.5-24.2
		c5.6,0,9.5,1.9,12,4.8v-3.7H862.5z M845.5,552.4c0-4.9-3.4-8.3-8.3-8.3c-5.1,0-8.2,3.5-8.2,8.3c0,4.7,3.1,8.2,8.2,8.2
		C842.2,560.6,845.5,557.3,845.5,552.4"/>
	<path class="st1" d="M919.4,529.3v46.2H903v-4.9c-2.4,3.4-6.3,6.1-12.7,6.1c-14.4,0-16.9-11.7-16.9-18.4v-29h16.4v25
		c0,3.6,2.6,6.3,6.7,6.3c4,0,6.6-2.7,6.6-6.3v-25H919.4z"/>
	<path class="st1" d="M930,516.3c0-4.7,3.8-8.5,8.6-8.5c4.7,0,8.6,3.8,8.6,8.5c0,4.7-3.8,8.6-8.6,8.6
		C933.8,524.9,930,521.1,930,516.3 M930.4,529.3h16.4v46.2h-16.4V529.3z"/>
	<path class="st2" d="M999.8,548.4c-11.1,3-21.4,6.3-26.5,11.3c2.8,3.6,7,4.6,12,2.6c3.8-1.6,5.8-4.6,6.5-6.8l12.7,1.9
		c-0.9,6.6-6,13.3-14.3,16.7c-14.4,5.9-27.9,0.9-33.3-12.5c-5.1-12.6,0.3-26.4,13.4-31.8c11.9-4.8,25.7-1,31.6,14.4
		C1002.5,546,1001.5,547.9,999.8,548.4 M985.6,544.9c-2.5-3.6-6.1-5.1-10.6-3.3c-3.9,1.6-5.6,5.3-5.1,9.7
		C974.5,547.8,979.7,545.6,985.6,544.9"/>
	<path class="st1" d="M1041.6,540.9v17.8c-12.4-1.5-13.8,4.7-13.8,12.1v17.4h-16.4V542h16.4v7.3C1031,544,1036.3,540.9,1041.6,540.9
		"/>
	<path class="st2" d="M1096.2,552.4c0,14.1-10.4,24.2-24.8,24.2c-14.4,0-24.8-10.1-24.8-24.2c0-14.1,10.4-24.2,24.8-24.2
		C1085.8,528.2,1096.2,538.3,1096.2,552.4 M1079.6,552.4c0-5.1-3.5-8.3-8.2-8.3c-4.7,0-8.3,3.2-8.3,8.3c0,5.1,3.6,8.2,8.3,8.2
		C1076.2,560.6,1079.6,557.5,1079.6,552.4"/>
	<polygon class="st1" points="810.5,500.3 810.5,505.2 794.9,505.2 794.9,478.3 800.1,478.3 800.1,500.3 	"/>
	<path class="st1" d="M831.6,493.4v11.8h-4.9v-2.1c-0.9,1.5-3.1,2.6-5.7,2.6c-2.9,0-6.9-1.6-6.9-5.7c0-6.4,7.9-6.4,10.5-6.4h2.1
		c0-2.8-1-4-4-4c-1.8,0-3.4,0.9-4.1,1.4l-3.3-2.5c2.2-2,4.8-3.1,8.1-3.1C829.6,485.2,831.6,488.8,831.6,493.4 M826.8,496.6h-0.3
		c-3.5,0-7.3,0-7.3,2.9c0,1.5,1,2.7,3.4,2.7c2.5,0,3.8-1.4,4.2-2.2V496.6z"/>
	<path class="st1" d="M1066.4,485.7v26.9h-4.9v-9.7c-1.2,1.6-3.2,2.8-6.2,2.8c-6.1,0-9.5-5.1-9.5-10.2c0-5.1,3.5-10.2,9.5-10.2
		c3,0,5,1.2,6.2,2.8v-2.3H1066.4z M1061.3,495.4c0-3-1.9-5.5-5.3-5.5c-3.3,0-5.3,2.5-5.3,5.5c0,3,1.9,5.5,5.3,5.5
		C1059.4,501,1061.3,498.4,1061.3,495.4"/>
	<path class="st1" d="M1089.4,485.7v19.5h-4.9v-2.4c-1.1,1.6-2.8,2.9-5.7,2.9c-4.9,0-7.2-4-7.2-8.1v-11.9h4.9v10.8
		c0,2.5,1,4.4,3.8,4.4c2.9,0,4.2-2.1,4.2-4.4v-10.8H1089.4z"/>
	<path class="st1" d="M1113.3,497.3h-14.5c0.7,2.6,2.9,4,5.5,4c2.2,0,3.8-1.2,4.4-1.9l3.9,2.3c-1.6,2.2-4.6,4-8.3,4
		c-6.5,0-10.7-4.3-10.7-10.2c0-6.1,4.6-10.2,10-10.2C1109.5,485.2,1114.2,489.6,1113.3,497.3 M1108.6,493.6c-0.5-2.5-2.2-4-4.8-4
		c-2.4,0-4.3,1.5-4.8,4H1108.6z"/>
	<path class="st2" d="M1025.4,644.5c-32.7,0-62.9-19.1-76.9-48.7c-1.8-3.8-0.2-8.4,3.7-10.3c3.9-1.8,8.4-0.2,10.3,3.7
		c11.5,24.2,36.2,39.9,62.9,39.9c26.8,0,51.5-15.7,62.9-39.9c1.8-3.8,6.4-5.5,10.3-3.7c3.9,1.8,5.5,6.4,3.7,10.3
		C1088.3,625.4,1058.2,644.5,1025.4,644.5"/>
	<path class="st1" d="M693.9,619.7L693.9,619.7c-1.5,0-2.8-1.2-2.8-2.8V477.6c0-1.5,1.2-2.8,2.8-2.8c1.5,0,2.8,1.2,2.8,2.8v139.4
		C696.6,618.5,695.4,619.7,693.9,619.7"/>
</g>
</svg>
