<?xml version="1.0" encoding="utf-8"?>
<!-- Generator: Adobe Illustrator 26.5.2, SVG Export Plug-In . SVG Version: 6.00 Build 0)  -->
<svg version="1.1" id="Capa_1" xmlns="http://www.w3.org/2000/svg" xmlns:xlink="http://www.w3.org/1999/xlink" x="0px" y="0px"
	 viewBox="0 0 680.5 711" style="enable-background:new 0 0 680.5 711;" xml:space="preserve">
<style type="text/css">
	.st0{fill:#7D858B;}
	.st1{fill:#62599F;}
	.st2{fill:#9A95C2;}
	.st3{fill:#A5A0C8;}
	.st4{fill:#8079B2;}
	.st5{fill:#D5D3E6;}
	.st6{fill:#B6B2D3;}
	.st7{fill:#A9A5CB;}
</style>
<g>
	<g>
		<g>
			<path class="st0" d="M72.5,496.8l-12-23.7c-0.3,0-0.6,0-1,0h-9.9v23.7H32.2v-71h27.3c18.1,0,27.3,10.3,27.3,24.5
				c0,8.5-4.2,14.9-11,18.8L91,496.8H72.5z M49.6,458.5h9.9c5.1,0,9.7-2,9.7-8.1c0-5.3-4-8.1-9.7-8.1h-9.9V458.5z"/>
			<path class="st0" d="M144.6,476.1h-37.1c1.7,6,6.6,8.7,12.9,8.7c5.3,0,8.9-2.5,10.5-4.5l11.6,6.9c-4.2,6.4-12.1,10.9-22.1,10.9
				c-17.3,0-28.9-11-28.9-27c0-15.2,11.9-27,26.6-27C133.3,444.2,146.7,454.5,144.6,476.1z M129.7,466.2c-1.2-6-5.5-8.7-11.2-8.7
				c-5.2,0-9.5,3-11.1,8.7H129.7z"/>
			<path class="st0" d="M194.4,480.9c0,10.9-8,17.2-23,17.2c-10.3,0-20.3-3.3-22.4-12.4l14.9-4.7c0.6,2,2.6,4.2,7.3,4.2
				c3.4,0,6.2-1,6.2-3.7c0-3.6-5.4-3.3-11.5-4.7c-9.8-2.2-15.2-5.8-15.2-15.8c0-10.8,9.2-16.9,22.1-16.9c8.8,0,17.5,4.4,19.8,13.1
				l-13.8,3.3c-0.6-2.4-2.8-3.8-5.9-3.8c-3.2,0-6.3,0.9-6.3,3.8c0,3.3,5.6,3.5,9.6,4.4C189.3,467.7,194.4,471.5,194.4,480.9z"/>
			<path class="st0" d="M254.2,471.1c0,15.2-11.5,27-27.6,27c-16,0-27.6-11.8-27.6-27c0-15.3,11.6-27,27.6-27
				C242.7,444.2,254.2,455.8,254.2,471.1z M237.6,471.1c0-6-4.4-11.1-11.1-11.1c-6.6,0-11,5.1-11,11.1c0,6,4.4,11,11,11
				C233.3,482.1,237.6,477.1,237.6,471.1z"/>
			<path class="st0" d="M278.8,425.8v71h-16.5v-71H278.8z"/>
			<path class="st0" d="M339.4,445.4v51.4h-16.5v-4.7c-2.8,3.3-7.3,6-14,6c-12.9,0-18.9-10.1-18.9-20.5v-32.3h16.4v27.8
				c0,5.9,3.8,8.8,8.2,8.8c4.9,0,8.2-3.1,8.2-8.8v-27.8H339.4z"/>
			<path class="st0" d="M384.3,477.3l14.2,8.5c-4.7,7.4-13.2,12.3-23.4,12.3c-16,0-27.6-11.8-27.6-27c0-15.3,11.6-27,27.6-27
				c10.2,0,18.8,4.8,23.4,12.3l-14.2,8.5c-1.9-2.9-5.2-4.9-9.2-4.9c-6.6,0-11,5.1-11,11.1c0,6,4.4,11,11,11
				C379.2,482.1,382.4,480.2,384.3,477.3z"/>
			<path class="st0" d="M404.7,431c0-4.8,3.9-8.6,8.6-8.6s8.6,3.9,8.6,8.6s-3.9,8.7-8.6,8.7S404.7,435.7,404.7,431z M405.1,445.4
				h16.4v51.4h-16.4V445.4z"/>
			<path class="st0" d="M484.9,471.1c0,15.2-11.5,27-27.6,27c-16,0-27.6-11.8-27.6-27c0-15.3,11.6-27,27.6-27
				C473.4,444.2,484.9,455.8,484.9,471.1z M468.3,471.1c0-6-4.4-11.1-11.1-11.1c-6.6,0-11,5.1-11,11.1c0,6,4.4,11,11,11
				C464,482.1,468.3,477.1,468.3,471.1z"/>
			<path class="st0" d="M542.4,464.7v32.2h-16.5v-27.7c0-5.9-3.7-8.8-8.2-8.8c-4.8,0-8.2,3.1-8.2,8.8v27.7H493v-51.4h16.4v4.8
				c2.9-3.3,7.4-6,14.1-6C536.3,444.2,542.4,454.3,542.4,464.7z"/>
			<path class="st0" d="M603.6,476.1h-37.1c1.7,6,6.6,8.7,12.9,8.7c5.3,0,8.9-2.5,10.5-4.5l11.6,6.9c-4.2,6.4-12.1,10.9-22.1,10.9
				c-17.3,0-28.9-11-28.9-27c0-15.2,11.9-27,26.6-27C592.3,444.2,605.7,454.5,603.6,476.1z M588.7,466.2c-1.2-6-5.5-8.7-11.2-8.7
				c-5.2,0-9.5,3-11.1,8.7H588.7z"/>
			<path class="st0" d="M653.4,480.9c0,10.9-8,17.2-23,17.2c-10.3,0-20.3-3.3-22.4-12.4l14.9-4.7c0.6,2,2.6,4.2,7.3,4.2
				c3.4,0,6.2-1,6.2-3.7c0-3.6-5.4-3.3-11.5-4.7c-9.8-2.2-15.2-5.8-15.2-15.8c0-10.8,9.2-16.9,22.1-16.9c8.8,0,17.5,4.4,19.8,13.1
				l-13.8,3.3c-0.6-2.4-2.8-3.8-5.9-3.8c-3.2,0-6.3,0.9-6.3,3.8c0,3.3,5.6,3.5,9.6,4.4C648.3,467.7,653.4,471.5,653.4,480.9z"/>
			<path class="st0" d="M209.9,561.9c0,13.5-8.7,27-24.6,27c-7,0-11.6-2.6-14.5-6.3v24.5h-16.5v-71h16.5v5.1
				c2.9-3.7,7.5-6.3,14.5-6.3C201.1,534.9,209.9,548.4,209.9,561.9z M193.2,561.9c0-6.4-4.2-11.1-11.1-11.1c-6.2,0-11,4.2-11,11.1
				c0,6.8,4.8,11,11,11C189.1,572.9,193.2,568.2,193.2,561.9z"/>
			<path class="st0" d="M270.1,561.9c0,15.2-11.5,27-27.6,27c-16,0-27.6-11.8-27.6-27c0-15.3,11.6-27,27.6-27
				C258.6,534.9,270.1,546.6,270.1,561.9z M253.6,561.9c0-6-4.4-11.1-11.1-11.1c-6.6,0-11,5.1-11,11.1c0,6,4.4,11,11,11
				C249.2,572.9,253.6,567.9,253.6,561.9z"/>
			<path class="st0" d="M310.9,534.9v17.7c-14.6-2.2-16.2,6.1-16.2,14.7v20.3h-16.4v-51.4h16.4v7.8
				C298.3,538.2,304.8,534.9,310.9,534.9z"/>
			<path class="st0" d="M366.2,549.7V566c0,5.4,1.9,8.1,7,8.1c1.3,0,2.3-0.2,3.1-0.3v13.8c-1.7,0.6-3.9,0.9-7.1,0.9
				c-15.8,0-19.5-10.8-19.5-20.8v-18h-6.4v-13.6h6.4v-10.8h16.4v10.8h10.1v13.6H366.2z"/>
			<path class="st0" d="M386.6,521.7c0-4.8,3.9-8.6,8.6-8.6s8.6,3.9,8.6,8.6s-3.9,8.7-8.6,8.7S386.6,526.5,386.6,521.7z M387,536.1
				h16.4v51.4H387V536.1z"/>
			<path class="st0" d="M470.2,561.9c0,13.5-8.7,27-24.7,27c-7,0-11.6-2.6-14.5-6.3v24.5h-16.5v-71h16.5v5.1
				c2.9-3.7,7.5-6.3,14.5-6.3C461.5,534.9,470.2,548.4,470.2,561.9z M453.6,561.9c0-6.4-4.2-11.1-11.1-11.1c-6.2,0-11,4.2-11,11.1
				c0,6.8,4.8,11,11,11C449.4,572.9,453.6,568.2,453.6,561.9z"/>
			<path class="st0" d="M530.5,561.9c0,15.2-11.5,27-27.6,27c-16,0-27.6-11.8-27.6-27c0-15.3,11.6-27,27.6-27
				C519,534.9,530.5,546.6,530.5,561.9z M514,561.9c0-6-4.4-11.1-11.1-11.1c-6.6,0-11,5.1-11,11.1c0,6,4.4,11,11,11
				C509.6,572.9,514,567.9,514,561.9z"/>
			<path class="st0" d="M103.5,607.3v71H87.1v-5c-3,3.7-7.6,6.3-14.5,6.3c-16,0-24.6-13.5-24.6-27c0-13.5,8.6-27,24.6-27
				c6.9,0,11.5,2.6,14.5,6.3v-24.7H103.5z M86.6,652.7c0-6.9-4.9-11.1-11.1-11.1c-6.8,0-11,4.7-11,11.1c0,6.3,4.2,11,11,11
				C81.7,663.6,86.6,659.5,86.6,652.7z"/>
			<path class="st0" d="M164.8,657.6h-37.1c1.7,6,6.6,8.7,12.9,8.7c5.3,0,8.9-2.5,10.5-4.5l11.6,6.9c-4.2,6.4-12.1,10.9-22.1,10.9
				c-17.3,0-28.9-11-28.9-27c0-15.2,11.9-27,26.6-27C153.4,625.7,166.8,636,164.8,657.6z M149.9,647.7c-1.2-6-5.5-8.7-11.2-8.7
				c-5.2,0-9.5,3-11.1,8.7H149.9z"/>
			<path class="st0" d="M252.1,607.3v71h-16.4v-5c-3,3.7-7.6,6.3-14.5,6.3c-16,0-24.6-13.5-24.6-27c0-13.5,8.6-27,24.6-27
				c6.9,0,11.5,2.6,14.5,6.3v-24.7H252.1z M235.2,652.7c0-6.9-4.9-11.1-11.1-11.1c-6.8,0-11,4.7-11,11.1c0,6.3,4.2,11,11,11
				C230.3,663.6,235.2,659.5,235.2,652.7z"/>
			<path class="st0" d="M313.4,657.6h-37.1c1.7,6,6.6,8.7,12.9,8.7c5.3,0,8.9-2.5,10.5-4.5l11.6,6.9c-4.2,6.4-12.1,10.9-22.1,10.9
				c-17.3,0-28.9-11-28.9-27c0-15.2,11.9-27,26.6-27C302,625.7,315.4,636,313.4,657.6z M298.5,647.7c-1.2-6-5.5-8.7-11.2-8.7
				c-5.2,0-9.5,3-11.1,8.7H298.5z"/>
			<path class="st0" d="M371.2,646.2v32.2h-16.5v-27.7c0-5.9-3.7-8.8-8.2-8.8c-4.8,0-8.2,3.1-8.2,8.8v27.7h-16.4v-51.4h16.4v4.8
				c2.9-3.3,7.4-6,14.1-6C365.1,625.7,371.2,635.8,371.2,646.2z"/>
			<path class="st0" d="M431.8,626.9v51.4h-16.5v-4.7c-2.8,3.3-7.3,6-14,6c-12.9,0-18.9-10.1-18.9-20.5v-32.3h16.4v27.8
				c0,5.9,3.8,8.8,8.2,8.8c4.9,0,8.2-3.1,8.2-8.8v-27.8H431.8z"/>
			<path class="st0" d="M492.3,646.2v32.2h-16.5v-27.7c0-5.9-3.7-8.8-8.2-8.8c-4.8,0-8.2,3.1-8.2,8.8v27.7h-16.4v-51.4h16.4v4.8
				c2.9-3.3,7.4-6,14.1-6C486.2,625.7,492.3,635.8,492.3,646.2z"/>
			<path class="st0" d="M537.2,658.9l14.2,8.5c-4.7,7.4-13.2,12.3-23.4,12.3c-16,0-27.6-11.8-27.6-27c0-15.3,11.6-27,27.6-27
				c10.2,0,18.8,4.8,23.4,12.3l-14.2,8.5c-1.9-2.9-5.2-4.9-9.2-4.9c-6.6,0-11,5.1-11,11.1c0,6,4.4,11,11,11
				C532.1,663.6,535.3,661.7,537.2,658.9z"/>
			<path class="st0" d="M557.6,612.5c0-4.8,3.9-8.6,8.6-8.6s8.6,3.9,8.6,8.6s-3.9,8.7-8.6,8.7S557.6,617.3,557.6,612.5z M558,626.9
				h16.4v51.4H558V626.9z"/>
			<path class="st0" d="M630.7,646.4v32h-16.4v-4.8c-2.7,4-8.8,6.1-14.1,6.1c-6.9,0-17.5-2.6-17.5-15.1c0-17,22.1-17,25.6-17
				c2.3,0,5,0,6.1,0v-0.2c0-4.9-2.4-8.3-8.4-8.3c-4.2,0-7.7,1.6-9.7,3.2l-10.8-7.3c5.6-5.9,13.3-9.2,23.1-9.2
				C624.9,625.7,630.7,634.1,630.7,646.4z M614.2,655.7c-0.4,0-0.9,0-1.3,0c-8.2,0-13.7,1.5-13.7,6.7c0,3.8,3,5.2,6.6,5.2
				c3.6,0,7-1.7,8.4-3.7V655.7z"/>
		</g>
	</g>
	<g>
		<g>
			<g>
				<g>
					<polygon class="st1" points="335.3,212.2 335.3,120.7 233.1,120.7 214.2,152.8 23.2,152.8 23.2,212.2 					"/>
				</g>
			</g>
			<g>
				<polygon class="st2" points="346.5,212.2 346.5,120.7 244.4,120.7 225.5,152.8 34.5,152.8 34.5,212.2 				"/>
			</g>
		</g>
		<g>
			<g>
				<g>
					<polygon class="st1" points="428.6,212.2 428.6,120.7 326.5,120.7 307.6,152.8 116.6,152.8 116.6,212.2 					"/>
				</g>
			</g>
			<g>
				<polygon class="st3" points="439.9,212.2 439.9,120.7 337.8,120.7 318.9,152.8 127.9,152.8 127.9,212.2 				"/>
			</g>
		</g>
		<g>
			<g>
				<g>
					<g>
						<g>
							<g>
								
									<rect x="300.6" y="32.9" transform="matrix(0.7259 -0.6878 0.6878 0.7259 -12.9249 279.8233)" class="st4" width="88" height="246.4"/>
								<polygon class="st5" points="323.4,6.5 295.4,33 231.5,93.6 401,272.4 464.9,211.9 528.8,151.3 388.2,3 								"/>
							</g>
							<polygon class="st4" points="352.3,37 388.2,3 323.4,6.5 							"/>
						</g>
					</g>
				</g>
			</g>
			<g>
				<path class="st4" d="M288.9,129.3L288.9,129.3c1.3,1.4,5.1,0,8.3-3.1l91.9-87c3.3-3.1,4.9-6.8,3.5-8.2v0c-1.3-1.4-5.1,0-8.3,3.1
					l-91.9,87C289.1,124.2,287.5,127.9,288.9,129.3z"/>
			</g>
			<g>
				<path class="st4" d="M299.7,140.8L299.7,140.8c1.3,1.4,5.1,0,8.3-3.1l91.9-87c3.3-3.1,4.9-6.8,3.5-8.2v0c-1.3-1.4-5.1,0-8.3,3.1
					l-91.9,87C300,135.7,298.4,139.4,299.7,140.8z"/>
			</g>
			<g>
				<path class="st4" d="M309.3,150.8L309.3,150.8c1.3,1.4,5.1,0,8.3-3.1l91.9-87c3.3-3.1,4.9-6.8,3.5-8.2v0c-1.3-1.4-5.1,0-8.3,3.1
					l-91.9,87C309.6,145.8,308,149.4,309.3,150.8z"/>
			</g>
			<g>
				<path class="st4" d="M319.8,162L319.8,162c1.3,1.4,5.1,0,8.3-3.1l91.9-87c3.3-3.1,4.9-6.8,3.5-8.2v0c-1.3-1.4-5.1,0-8.3,3.1
					l-91.9,87C320.1,156.9,318.5,160.6,319.8,162z"/>
			</g>
			<g>
				<path class="st4" d="M267.8,107.1L267.8,107.1c1.5,1.6,4.1,1.7,5.7,0.2L319.2,64c1.6-1.5,1.7-4.1,0.2-5.7v0
					c-1.5-1.6-4.1-1.7-5.7-0.2L268,101.3C266.3,102.9,266.3,105.4,267.8,107.1z"/>
			</g>
			<g>
				<path class="st4" d="M279.4,119.2L279.4,119.2c1.5,1.6,4.1,1.7,5.7,0.2l45.6-43.2c1.6-1.5,1.7-4.1,0.2-5.7v0
					c-1.5-1.6-4.1-1.7-5.7-0.2l-45.6,43.2C277.9,115,277.8,117.6,279.4,119.2z"/>
			</g>
			<g>
				<path class="st4" d="M417.7,171.1L417.7,171.1c1.5,1.6,4.1,1.7,5.7,0.2l45.6-43.2c1.6-1.5,1.7-4.1,0.2-5.7v0
					c-1.5-1.6-4.1-1.7-5.7-0.2l-45.6,43.2C416.2,166.9,416.1,169.5,417.7,171.1z"/>
			</g>
			<g>
				<path class="st4" d="M429.5,183.6L429.5,183.6c1.5,1.6,4.1,1.7,5.7,0.2l45.6-43.2c1.6-1.5,1.7-4.1,0.2-5.7v0
					c-1.5-1.6-4.1-1.7-5.7-0.2l-45.6,43.2C428,179.4,428,182,429.5,183.6z"/>
			</g>
		</g>
		<g>
			<g>
				<g>
					<polygon class="st1" points="522,212.2 522,120.7 419.9,120.7 401,152.8 210,152.8 210,212.2 					"/>
				</g>
			</g>
			<g>
				<polygon class="st6" points="533.3,212.2 533.3,120.7 431.2,120.7 412.3,152.8 221.3,152.8 221.3,212.2 				"/>
			</g>
		</g>
		<g>
			<g>
				<g>
					<polygon class="st1" points="615.4,212.2 615.4,120.7 513.3,120.7 494.4,152.8 303.4,152.8 303.4,212.2 					"/>
				</g>
			</g>
			<g>
				<g>
					<polygon class="st5" points="626.7,212.2 626.7,120.7 524.6,120.7 505.7,152.8 314.7,152.8 314.7,212.2 					"/>
				</g>
			</g>
		</g>
		<rect x="1" y="212.2" class="st4" width="531.6" height="118.2"/>
		<g>
			<rect x="325" y="192.5" class="st7" width="342.8" height="157.6"/>
			<rect x="337.8" y="192.5" class="st1" width="342.8" height="157.6"/>
		</g>
		<g>
			<rect x="449.6" y="291" class="st4" width="112.3" height="34"/>
			<rect x="461.2" y="291" class="st7" width="107.6" height="34"/>
		</g>
	</g>
</g>
</svg>
