<?xml version="1.0" encoding="utf-8"?>
<!-- Generator: Adobe Illustrator 26.5.2, SVG Export Plug-In . SVG Version: 6.00 Build 0)  -->
<svg version="1.1" id="Capa_1" xmlns="http://www.w3.org/2000/svg" xmlns:xlink="http://www.w3.org/1999/xlink" x="0px" y="0px"
	 viewBox="0 0 533.5 711" style="enable-background:new 0 0 533.5 711;" xml:space="preserve">
<style type="text/css">
	.st0{fill:#7D858B;}
	.st1{fill:#8079B2;}
</style>
<g>
	<g>
		<g>
			<path class="st0" d="M66.5,435.3v71.3H51.2l-27.8-41.6v41.6H5.8v-71.3h15.3l27.8,41.6v-41.6H66.5z"/>
			<path class="st0" d="M127.8,455v51.7h-16.6V502c-2.9,3.4-7.3,6-14.1,6c-12.9,0-19-10.2-19-20.6V455h16.5v27.9
				c0,5.9,3.8,8.9,8.3,8.9c4.9,0,8.3-3.2,8.3-8.9V455H127.8z M118.5,433.6l-9.9,14.3H95.5l6.6-14.3H118.5z"/>
			<path class="st0" d="M216.2,472.5v34.1h-16.5V477c0-5.8-4.3-7-6.9-7s-6.8,1.3-6.8,7v29.6h-16.6V477c0-5.8-4.2-7-6.8-7
				s-6.9,1.3-6.9,7v29.6H139V455h16.6v4c2.6-3,6.7-5.2,12.7-5.2c7.1,0,11.8,2.8,14.6,6.9c3.1-3.8,7.7-6.9,14.9-6.9
				C210.4,453.8,216.2,462.1,216.2,472.5z"/>
			<path class="st0" d="M277.8,485.9h-37.3c1.7,6,6.6,8.8,12.9,8.8c5.3,0,9-2.5,10.6-4.5l11.6,6.9c-4.2,6.4-12.1,10.9-22.2,10.9
				c-17.4,0-29-11-29-27.1c0-15.3,11.9-27.1,26.7-27.1C266.3,453.8,279.8,464.2,277.8,485.9z M262.8,475.9c-1.2-6-5.5-8.8-11.2-8.8
				c-5.2,0-9.6,3.1-11.1,8.8H262.8z"/>
			<path class="st0" d="M319,453.8v17.7c-14.7-2.2-16.3,6.1-16.3,14.8v20.4h-16.5V455h16.5v7.8C306.4,457,312.9,453.8,319,453.8z"/>
			<path class="st0" d="M378.5,480.9c0,15.3-11.5,27.1-27.7,27.1c-16.1,0-27.7-11.8-27.7-27.1c0-15.4,11.6-27.1,27.7-27.1
				C367,453.8,378.5,465.5,378.5,480.9z M361.9,480.9c0-6-4.4-11.1-11.1-11.1c-6.6,0-11,5.1-11,11.1s4.4,11,11,11
				C357.5,491.9,361.9,486.9,361.9,480.9z"/>
			<path class="st0" d="M465.9,435.3v71.3h-16.5v-5c-3.1,3.7-7.6,6.3-14.6,6.3c-16.1,0-24.8-13.5-24.8-27.1s8.7-27.1,24.8-27.1
				c6.9,0,11.5,2.6,14.6,6.3v-24.8H465.9z M448.9,480.9c0-6.9-4.9-11.1-11.1-11.1c-6.8,0-11,4.7-11,11.1c0,6.3,4.2,11,11,11
				C444,491.9,448.9,487.7,448.9,480.9z"/>
			<path class="st0" d="M527.5,485.9h-37.3c1.7,6,6.6,8.8,12.9,8.8c5.3,0,9-2.5,10.6-4.5l11.6,6.9c-4.2,6.4-12.1,10.9-22.2,10.9
				c-17.4,0-29-11-29-27.1c0-15.3,11.9-27.1,26.7-27.1C516,453.8,529.5,464.2,527.5,485.9z M512.5,475.9c-1.2-6-5.5-8.8-11.2-8.8
				c-5.2,0-9.6,3.1-11.1,8.8H512.5z"/>
			<path class="st0" d="M63.5,526.5v71.3H47v-5c-3.1,3.7-7.6,6.3-14.6,6.3c-16.1,0-24.8-13.5-24.8-27.1s8.7-27.1,24.8-27.1
				c6.9,0,11.5,2.6,14.6,6.3v-24.8H63.5z M46.4,572c0-6.9-4.9-11.1-11.1-11.1c-6.8,0-11,4.7-11,11.1c0,6.3,4.2,11,11,11
				C41.6,583,46.4,578.9,46.4,572z"/>
			<path class="st0" d="M125,577H87.7c1.7,6,6.6,8.8,12.9,8.8c5.3,0,9-2.5,10.6-4.5l11.6,6.9c-4.2,6.4-12.1,10.9-22.2,10.9
				c-17.4,0-29-11-29-27.1c0-15.3,11.9-27.1,26.7-27.1C113.6,544.9,127,555.3,125,577z M110,567c-1.2-6-5.5-8.8-11.2-8.8
				c-5.2,0-9.6,3.1-11.1,8.8H110z"/>
			<path class="st0" d="M183.1,565.5v32.3h-16.6V570c0-5.9-3.7-8.9-8.3-8.9c-4.8,0-8.3,3.2-8.3,8.9v27.8h-16.5v-51.7H150v4.8
				c3-3.4,7.4-6,14.2-6C176.9,544.9,183.1,555.1,183.1,565.5z"/>
			<path class="st0" d="M243.9,546.2v51.7h-16.6v-4.7c-2.9,3.4-7.3,6-14.1,6c-12.9,0-19-10.2-19-20.6v-32.4h16.5v27.9
				c0,5.9,3.8,8.9,8.3,8.9c4.9,0,8.3-3.2,8.3-8.9v-27.9H243.9z"/>
			<path class="st0" d="M304.7,565.5v32.3h-16.6V570c0-5.9-3.7-8.9-8.3-8.9c-4.8,0-8.3,3.2-8.3,8.9v27.8h-16.5v-51.7h16.5v4.8
				c3-3.4,7.4-6,14.2-6C298.6,544.9,304.7,555.1,304.7,565.5z"/>
			<path class="st0" d="M349.8,578.2l14.3,8.6c-4.7,7.4-13.2,12.3-23.5,12.3c-16.1,0-27.7-11.8-27.7-27.1
				c0-15.4,11.6-27.1,27.7-27.1c10.3,0,18.8,4.8,23.5,12.3l-14.3,8.6c-1.9-3-5.2-4.9-9.3-4.9c-6.6,0-11,5.1-11,11.1s4.4,11,11,11
				C344.6,583,347.9,581.1,349.8,578.2z"/>
			<path class="st0" d="M370.3,531.7c0-4.8,3.9-8.7,8.7-8.7c4.8,0,8.7,3.9,8.7,8.7s-3.9,8.8-8.7,8.8
				C374.2,540.4,370.3,536.5,370.3,531.7z M370.7,546.2h16.5v51.7h-16.5V546.2z"/>
			<path class="st0" d="M443.7,565.7v32.1h-16.5V593c-2.8,4-8.9,6.1-14.2,6.1c-6.9,0-17.6-2.6-17.6-15.2c0-17.1,22.2-17.1,25.7-17.1
				c2.3,0,5,0,6.1,0v-0.2c0-4.9-2.4-8.4-8.5-8.4c-4.2,0-7.7,1.6-9.8,3.3l-10.8-7.3c5.6-5.9,13.3-9.3,23.2-9.3
				C437.9,544.9,443.7,553.4,443.7,565.7z M427.2,575.1c-0.4,0-0.9,0-1.3,0c-8.3,0-13.8,1.5-13.8,6.7c0,3.8,3.1,5.2,6.6,5.2
				c3.6,0,7-1.7,8.5-3.7V575.1z"/>
			<path class="st0" d="M496.4,581.8c0,10.9-8,17.3-23.1,17.3c-10.4,0-20.4-3.4-22.5-12.4l15-4.7c0.6,2,2.6,4.2,7.3,4.2
				c3.5,0,6.2-1,6.2-3.7c0-3.6-5.4-3.4-11.5-4.7c-9.9-2.2-15.3-5.8-15.3-15.9c0-10.8,9.3-17,22.2-17c8.9,0,17.6,4.4,19.9,13.1
				l-13.9,3.4c-0.6-2.4-2.9-3.8-5.9-3.8c-3.3,0-6.3,0.9-6.3,3.8c0,3.4,5.6,3.6,9.7,4.4C491.2,568.6,496.4,572.3,496.4,581.8z"/>
			<path class="st0" d="M119.7,663.2c0,13.6-8.8,27.1-24.8,27.1c-7,0-11.6-2.6-14.6-6.3v24.7H63.8v-71.3h16.6v5.1
				c3-3.7,7.5-6.3,14.6-6.3C111,636.1,119.7,649.6,119.7,663.2z M103,663.2c0-6.4-4.2-11.1-11.1-11.1c-6.2,0-11,4.2-11,11.1
				c0,6.8,4.8,11,11,11C98.9,674.2,103,669.5,103,663.2z"/>
			<path class="st0" d="M180.3,663.2c0,15.3-11.5,27.1-27.7,27.1c-16.1,0-27.7-11.8-27.7-27.1c0-15.4,11.6-27.1,27.7-27.1
				C168.7,636.1,180.3,647.8,180.3,663.2z M163.7,663.2c0-6-4.4-11.1-11.1-11.1c-6.6,0-11,5.1-11,11.1s4.4,11,11,11
				C159.3,674.2,163.7,669.2,163.7,663.2z"/>
			<path class="st0" d="M221.2,636.1v17.7c-14.7-2.2-16.3,6.1-16.3,14.8V689h-16.5v-51.7h16.5v7.8
				C208.6,639.3,215.1,636.1,221.2,636.1z"/>
			<path class="st0" d="M297.4,673c0,10.9-8,17.3-23.1,17.3c-10.4,0-20.4-3.4-22.5-12.4l15-4.7c0.6,2,2.6,4.2,7.3,4.2
				c3.5,0,6.2-1,6.2-3.7c0-3.6-5.4-3.4-11.5-4.7c-9.9-2.2-15.3-5.8-15.3-15.9c0-10.8,9.3-17,22.2-17c8.9,0,17.6,4.4,19.9,13.1
				l-13.9,3.4c-0.6-2.4-2.9-3.8-5.9-3.8c-3.3,0-6.3,0.9-6.3,3.8c0,3.4,5.6,3.6,9.7,4.4C292.2,659.7,297.4,663.5,297.4,673z"/>
			<path class="st0" d="M355.4,668.2h-37.3c1.7,6,6.6,8.8,12.9,8.8c5.3,0,9-2.5,10.6-4.5l11.6,6.9c-4.2,6.4-12.1,10.9-22.2,10.9
				c-17.4,0-29-11-29-27.1c0-15.3,11.9-27.1,26.7-27.1C344,636.1,357.4,646.5,355.4,668.2z M340.4,658.2c-1.2-6-5.5-8.8-11.2-8.8
				c-5.2,0-9.6,3.1-11.1,8.8H340.4z"/>
			<path class="st0" d="M393.8,689l-9.1-16l-8.9,16h-18.6l16.4-25.9L358,637.3h18.6l8,16.1l8.2-16.1h18.6l-15.6,25.8l16.4,25.9
				H393.8z"/>
			<path class="st0" d="M469.3,663.2c0,15.3-11.5,27.1-27.7,27.1c-16.1,0-27.7-11.8-27.7-27.1c0-15.4,11.6-27.1,27.7-27.1
				C457.8,636.1,469.3,647.8,469.3,663.2z M452.7,663.2c0-6-4.4-11.1-11.1-11.1c-6.6,0-11,5.1-11,11.1s4.4,11,11,11
				C448.3,674.2,452.7,669.2,452.7,663.2z"/>
		</g>
	</g>
	<g>
		<g>
			<g>
				<path class="st1" d="M94.8,115.1c-23.8,0-47.6,0-71.4,0c-7.7,0-10.3,3.1-8.6,10.5c17,73.1,34.1,146.2,51.1,219.4
					c1.2,5.1,3.2,6.7,8.6,6.7c13.3,0,26.6,0,39.9,0c6,0,7.9-1.5,9.3-7.4c16.9-72.7,33.8-145.4,50.7-218.2c1.9-8.1-0.4-11-8.7-11
					C142.1,115.1,118.5,115.1,94.8,115.1z M202.8,259.2c0.4,1.2,0.7,2.3,1,3.4c7,27.2,14,54.4,21,81.6c1.6,6.2,3.3,7.5,9.7,7.5
					c13,0,26,0,39.1,0c5.9,0,7.7-1.4,9.2-7c3.1-11.9,6.1-23.8,9.2-35.7c4.3-16.5,8.5-33,12.8-49.7c7,0,13.9,0,20.7,0
					c7.5,0,10.2-3.6,8-10.7c-12.4-42.2-24.9-84.4-37.4-126.7c-1.6-5.4-3.1-6.6-8.6-6.7c-22.4,0-44.8,0-67.2,0
					c-5.5,0-7.2,1.3-8.8,6.5c-12.5,42.5-25.1,85-37.6,127.5c-1.9,6.4,0.9,10,7.6,10C188.7,259.2,195.7,259.2,202.8,259.2z
					 M306.4,54.5c0-28.9-23.4-52.4-52.2-52.5c-28.9-0.1-52.8,23.6-52.8,52.5c0,28.7,23.7,52.5,52.3,52.5
					C282.8,107.1,306.4,83.6,306.4,54.5z M94.9,2C66.1,1.9,42.4,25.3,42.3,54.1c-0.1,29.1,23.3,52.8,52.2,52.9
					c28.9,0.1,52.8-23.7,52.8-52.5C147.3,25.8,123.6,2.1,94.9,2z"/>
				<path class="st1" d="M94.8,115.1c23.7,0,47.3,0,71,0c8.3,0,10.5,2.9,8.7,11c-16.9,72.7-33.8,145.4-50.7,218.2
					c-1.4,5.9-3.3,7.4-9.3,7.4c-13.3,0-26.6,0-39.9,0c-5.3,0-7.4-1.6-8.6-6.7c-17.1-73.1-34.1-146.2-51.1-219.4
					c-1.7-7.4,0.8-10.4,8.6-10.5C47.2,115.1,71,115.1,94.8,115.1z"/>
				<path class="st1" d="M202.8,259.2c-7.1,0-14.1,0-21.1,0c-6.8,0-9.5-3.6-7.6-10c12.5-42.5,25-85,37.6-127.5
					c1.5-5.2,3.3-6.5,8.8-6.5c22.4,0,44.8,0,67.2,0c5.5,0,7,1.2,8.6,6.7c12.5,42.2,24.9,84.4,37.4,126.7c2.1,7.2-0.5,10.7-8,10.7
					c-6.8,0-13.7,0-20.7,0c-4.3,16.7-8.6,33.2-12.8,49.7c-3.1,11.9-6.1,23.8-9.2,35.7c-1.5,5.6-3.2,7-9.2,7c-13,0-26,0-39.1,0
					c-6.4,0-8.1-1.3-9.7-7.5c-7-27.2-14-54.4-21-81.6C203.6,261.5,203.2,260.4,202.8,259.2z"/>
				<path class="st1" d="M306.4,54.5c0,29-23.6,52.6-52.7,52.5c-28.7-0.1-52.4-23.8-52.3-52.5c0-28.9,23.9-52.6,52.8-52.5
					C283,2.1,306.4,25.6,306.4,54.5z"/>
				<path class="st1" d="M94.9,2c28.7,0.1,52.4,23.8,52.4,52.5c0,28.9-23.8,52.6-52.8,52.5c-29-0.1-52.4-23.8-52.2-52.9
					C42.4,25.3,66.1,1.9,94.9,2z"/>
				<path class="st1" d="M421,115.1c-23.8,0-47.6,0-71.4,0c-7.7,0-10.3,3.1-8.6,10.5c17,73.1,34.1,146.2,51.1,219.4
					c1.2,5.1,3.2,6.7,8.6,6.7c13.3,0,26.6,0,39.9,0c6,0,7.9-1.5,9.3-7.4c16.9-72.7,33.8-145.4,50.7-218.2c1.9-8.1-0.4-11-8.7-11
					C468.3,115.1,444.6,115.1,421,115.1z"/>
				<path class="st1" d="M421.1,2c-28.9-0.1-52.5,23.3-52.6,52.1c-0.1,29.1,23.3,52.8,52.2,52.9c28.9,0.1,52.8-23.7,52.8-52.5
					C473.5,25.8,449.8,2.1,421.1,2z"/>
				<path class="st1" d="M421,115.1c23.7,0,47.3,0,71,0c8.3,0,10.5,2.9,8.7,11c-16.9,72.7-33.8,145.4-50.7,218.2
					c-1.4,5.9-3.3,7.4-9.3,7.4c-13.3,0-26.6,0-39.9,0c-5.3,0-7.4-1.6-8.6-6.7C375.1,271.8,358,198.7,341,125.6
					c-1.7-7.4,0.8-10.4,8.6-10.5C373.4,115.1,397.2,115.1,421,115.1z"/>
				<path class="st1" d="M421.1,2c28.7,0.1,52.4,23.8,52.4,52.5c0,28.9-23.8,52.6-52.8,52.5c-29-0.1-52.4-23.8-52.2-52.9
					C368.6,25.3,392.2,1.9,421.1,2z"/>
			</g>
		</g>
		<path class="st1" d="M420.8,351.6c-23.7,0-47.3,0-71,0c-8.3,0-10.5-2.9-8.7-11c16.9-72.7,33.8-145.4,50.7-218.2
			c1.4-5.9,3.3-7.4,9.3-7.4c13.3,0,26.6,0,39.9,0c5.3,0,7.4,1.6,8.6,6.7c17.1,73.1,34.1,146.2,51.1,219.4c1.7,7.4-0.8,10.4-8.6,10.5
			C468.4,351.7,444.6,351.6,420.8,351.6z"/>
	</g>
</g>
</svg>
