<?xml version="1.0" encoding="utf-8"?>
<!-- Generator: Adobe Illustrator 24.3.2, SVG Export Plug-In . SVG Version: 6.00 Build 0)  -->
<svg version="1.1" id="Capa_1" xmlns="http://www.w3.org/2000/svg" xmlns:xlink="http://www.w3.org/1999/xlink" x="0px" y="0px"
	 viewBox="0 0 293.22 115.33" style="enable-background:new 0 0 293.22 115.33;" xml:space="preserve">
<style type="text/css">
	.st0{fill:#FEFEFE;}
</style>
<g>
	<g>
		<path class="st0" d="M145.19,52.13l4.49,2.95c-1.98,2.64-5.11,4.27-8.88,4.27c-6.49,0-11.17-4.86-11.17-11.39
			c0-6.5,4.67-11.36,11.17-11.36c3.77,0,6.9,1.63,8.88,4.24l-4.49,2.95c-0.94-1.19-2.41-2.01-4.39-2.01c-3.83,0-5.77,3.08-5.77,6.18
			c0,3.1,1.95,6.21,5.77,6.21C142.77,54.16,144.25,53.35,145.19,52.13z"/>
		<path class="st0" d="M167.99,51c0,4.71-3.55,8.35-8.53,8.35c-4.96,0-8.53-3.64-8.53-8.35c0-4.74,3.58-8.35,8.53-8.35
			C164.44,42.65,167.99,46.26,167.99,51z M162.87,51c0-1.85-1.35-3.42-3.42-3.42c-2.04,0-3.39,1.57-3.39,3.42
			c0,1.85,1.35,3.39,3.39,3.39C161.53,54.38,162.87,52.85,162.87,51z"/>
		<path class="st0" d="M185.77,48.99v9.94h-5.11v-8.57c0-1.82-1.13-2.73-2.54-2.73c-1.47,0-2.54,0.97-2.54,2.73v8.57h-5.08V43.03
			h5.08v1.48c0.91-1.04,2.29-1.85,4.36-1.85C183.89,42.65,185.77,45.79,185.77,48.99z"/>
		<path class="st0" d="M195.02,47.23v5.02c0,1.66,0.6,2.51,2.17,2.51c0.41,0,0.72-0.06,0.97-0.09v4.27
			c-0.53,0.19-1.19,0.28-2.19,0.28c-4.89,0-6.02-3.33-6.02-6.43v-5.55h-1.98v-4.2h1.98V39.7h5.08v3.32h3.14v4.2H195.02z"/>
		<path class="st0" d="M211.55,42.65v5.46c-4.52-0.69-5.02,1.88-5.02,4.55v6.27h-5.08V43.03h5.08v2.42
			C207.66,43.65,209.67,42.65,211.55,42.65z"/>
		<path class="st0" d="M227.36,49.05v9.88h-5.08v-1.47c-0.85,1.22-2.73,1.88-4.36,1.88c-2.13,0-5.43-0.82-5.43-4.67
			c0-5.27,6.84-5.27,7.91-5.27c0.72,0,1.54,0,1.88,0v-0.06c0-1.51-0.75-2.57-2.61-2.57c-1.29,0-2.38,0.5-3.01,1l-3.32-2.26
			c1.72-1.82,4.11-2.86,7.15-2.86C225.57,42.65,227.36,45.25,227.36,49.05z M222.28,51.94c-0.13,0-0.28,0-0.41,0
			c-2.54,0-4.24,0.47-4.24,2.07c0,1.16,0.94,1.6,2.04,1.6c1.1,0,2.17-0.53,2.61-1.13V51.94z"/>
		<path class="st0" d="M235.92,36.97v21.96h-5.11V36.97H235.92z"/>
		<path class="st0" d="M255.5,51c0,4.71-3.55,8.35-8.53,8.35c-4.96,0-8.53-3.64-8.53-8.35c0-4.74,3.58-8.35,8.53-8.35
			C251.95,42.65,255.5,46.26,255.5,51z M250.38,51c0-1.85-1.35-3.42-3.42-3.42c-2.04,0-3.39,1.57-3.39,3.42
			c0,1.85,1.35,3.39,3.39,3.39C249.03,54.38,250.38,52.85,250.38,51z"/>
		<path class="st0" d="M268.1,42.65v5.46c-4.52-0.69-5.02,1.88-5.02,4.55v6.27H258V43.03h5.08v2.42
			C264.21,43.65,266.22,42.65,268.1,42.65z"/>
		<path class="st0" d="M270.61,43.03h5.08v15.91h-5.08V43.03z M278.26,36.44l-3.04,4.39h-4.05l2.04-4.39H278.26z"/>
		<path class="st0" d="M293.07,49.05v9.88h-5.08v-1.47c-0.85,1.22-2.73,1.88-4.36,1.88c-2.13,0-5.43-0.82-5.43-4.67
			c0-5.27,6.84-5.27,7.91-5.27c0.72,0,1.54,0,1.88,0v-0.06c0-1.51-0.75-2.57-2.61-2.57c-1.29,0-2.38,0.5-3.01,1l-3.32-2.26
			c1.72-1.82,4.11-2.86,7.15-2.86C291.28,42.65,293.07,45.25,293.07,49.05z M287.99,51.94c-0.13,0-0.28,0-0.41,0
			c-2.54,0-4.24,0.47-4.24,2.07c0,1.16,0.94,1.6,2.04,1.6c1.1,0,2.17-0.53,2.61-1.13V51.94z"/>
	</g>
	<g>
		<path class="st0" d="M56.13,26.75l0.25-0.31l-2.22-1.29c-0.39-0.23-0.87-0.25-1.28-0.05l-0.71,0.28l1.55,1.8
			C54.4,27.86,55.52,27.5,56.13,26.75z"/>
		<path class="st0" d="M-0.1,0.11v99.51l46.06,15.53l46.72-15.53V0.11H-0.1z M53.41,84.91h-3.04l-0.52-1.51l-2.62-7.19l-0.75,1.39
			h-0.82v-3.29l0.79-0.24l0.69-0.21c1.3-0.48,1.62-1.14,1.62-2.27c0-0.79-0.37-1.49-0.97-1.89l-0.18-0.13l-1.32-0.97l-1.66-1.18
			c3.55-4.82,9.59-6,14.15-6.11v3.14h0c0.01,0.07,0.01,0.14,0.01,0.2v4.4c0,2.43-1.15,4.72-3.1,6.17l-0.38,0.28
			c-0.31,0.26-0.64,0.51-0.98,0.73l-0.02,0.01l0,0c-0.05,0.03-0.1,0.06-0.15,0.09c-0.01,0.01-0.01,0.01-0.02,0.02
			c-1.53,1.12-0.41,2.5-0.39,2.53c0.06,0.01,0.13,0.02,0.19,0.02l6.75,1.03l1.82,4.99L53.41,84.91L53.41,84.91z M60.41,50.3
			l12.98,0.86l1.07,5.97h-4.85c-0.94,0-1.74-0.67-1.91-1.6l-0.03-0.19l-13.71,3.49c-8.77,2.23-9.76,9.2-9.76,9.2
			c-0.19,0.71-0.39,1.43-0.68,2.1c-0.54,1.25-1.33,2.42-2.3,3.38c-1.28,1.27-2.9,2.21-4.69,2.71c-0.5,0.15-1.03,0.24-1.57,0.3
			l0.01,0.01c-2.11,0.34-1.01,2.39-1.01,2.39h0.06l6.1,0.96l1.92,5.02H33c0,0-3.28,0-3.28,0l-0.29-1.5l-1.7-9.88l-1.11,2.06H25.8
			v-3.29l1.63-0.5c6.99-2.39,6.87-10.45,6.81-11.67H32.1c-2.33,0-4.59-0.96-6.21-2.63c-3.07-3.17-3.26-8.13-0.44-11.53l0.81-0.98
			c0.8-0.96,1.24-2.19,1.24-3.44v-4.79c0-2.13-1.73-3.86-3.86-3.86s-3.86,1.73-3.86,3.86v0.99c0,1.8-1.46,3.26-3.26,3.26v-3.26v0
			v-0.99c0-3.92,3.19-7.11,7.11-7.11s7.11,3.19,7.11,7.11v4.79c0,2.01-0.71,3.97-1.99,5.52l-0.81,0.98
			c-1.76,2.12-1.64,5.21,0.28,7.18c0.37,0.38,0.79,0.7,1.24,0.95c4.36,1.96,7.59-0.9,8.75-2.18c1.25-1.43,2.15-3.16,2.59-5.07
			c5.64,2.95,6.77,5.61,6.77,5.61c-0.06-3.14-1.47-5.22-4.89-7.59c-2.32-1.6-3.63-3-4.24-3.74c-1.98-2.51-3.15-5.69-3.15-9.16
			c0-0.04,0-0.09,0-0.13c-0.01-0.15-0.04-0.29-0.05-0.44c-0.3-4.64,1.5-9.26,4.87-12.47c4.13-3.94,10.42-5.36,15.65-2.84
			c1.4,0.67,2.72,1.6,3.6,2.9c0.08,0.08,0.14,0.17,0.18,0.27c0,0,0,0,0,0l0,0c0.14,0.34,0.07,0.76-0.26,1.02l-1.88,1.53l-3.15-0.62
			l2.3,1.32h0l8.83,5.06l-2.87,3.29c-0.43,0.5-1.18,0.57-1.67,0.13c-0.52-0.41-1.16-0.92-1.56-1.36c-1.05-1.07-1.65-1.75-2.74-1.75
			c-1.08,0-1.98,0.88-1.98,1.98c0,1.08,0.96,1.58,1.98,1.99c1.4,0.57,3.87,0.88,3.87,0.88l-0.91,2.98
			c-0.33,0.79-1.33,1.02-1.98,0.47l-4.75-3.29c-0.4-0.24-0.73-0.46-1.02-0.71l-0.01-0.01h0c-0.71-0.59-1.19-1.31-1.81-2.64
			c0,0-0.91,2.89,3.16,7.5c0.49,0.56,1.01,1.11,1.54,1.67c0.47,0.45,0.9,0.89,1.28,1.33l5.96,0.14l7.44-9.97h6.74l-2.18,5.45
			c-0.29,0.74-1.01,1.22-1.8,1.22h-0.62l-5.19,9.72l-6.17-0.25C60.27,49.04,60.38,49.66,60.41,50.3z"/>
	</g>
	<path class="st0" d="M107.09,40.48c5.76,0,10.44,4.67,10.44,10.44s-4.67,10.44-10.44,10.44V40.48z"/>
	<g>
		<path class="st0" d="M145.86,75.84v9.07h-1.54l-0.21-2.74c-1.15,1.9-3.1,3.05-5.95,3.05c-4.99,0-8.54-3.79-8.54-8.71
			c0-4.92,3.55-8.69,8.54-8.69c2.78,0,5.14,1.18,6.67,3.1l-2.02,1.32c-1.03-1.3-2.61-2.18-4.66-2.18c-3.94,0-6.1,3.19-6.1,6.46
			s2.16,6.45,6.1,6.45c3.5,0,5.42-2.18,5.81-4.94h-5.59v-2.19H145.86z"/>
		<path class="st0" d="M159.7,72.74v12.17h-2.18v-1.68c-0.72,1.08-1.92,1.99-3.74,1.99c-2.74,0-4.68-2.28-4.68-4.85v-7.63h2.18v6.98
			c0,1.73,0.72,3.41,3,3.41c2.3,0,3.24-1.97,3.24-3.41v-6.98H159.7z"/>
		<path class="st0" d="M172.83,77.57v7.34h-2.18v-1.68c-0.55,0.94-2.06,1.99-3.98,1.99c-2.3,0-4.32-1.39-4.32-3.58
			c0-3.82,4.63-3.91,6.34-3.91c0.62,0,1.66,0,1.97,0c0-1.85-0.38-3.29-2.9-3.29c-1.27,0-2.62,0.65-3.14,1.08l-1.54-1.18
			c1.34-1.22,3.19-1.9,5.11-1.9C171.68,72.45,172.83,74.66,172.83,77.57z M170.65,79.44c-0.07,0-0.7,0-0.84,0
			c-2.26,0-5.21-0.02-5.21,2.11c0,0.94,0.6,1.9,2.54,1.9c2.09,0,3.36-1.46,3.5-2.02V79.44z"/>
		<path class="st0" d="M188.14,68.11v16.8h-2.18v-1.7c-0.91,1.15-2.3,2.02-4.42,2.02c-3.79,0-6.07-3.19-6.07-6.38
			c0-3.19,2.28-6.38,6.07-6.38c2.11,0,3.5,0.86,4.42,1.99v-6.34H188.14z M185.96,78.84c0-2.4-1.54-4.32-4.2-4.32
			c-2.52,0-4.03,1.87-4.03,4.32c0,2.45,1.51,4.3,4.03,4.3C184.42,83.13,185.96,81.24,185.96,78.84z"/>
		<path class="st0" d="M201.27,77.57v7.34h-2.18v-1.68c-0.55,0.94-2.06,1.99-3.98,1.99c-2.3,0-4.32-1.39-4.32-3.58
			c0-3.82,4.63-3.91,6.34-3.91c0.62,0,1.66,0,1.97,0c0-1.85-0.38-3.29-2.9-3.29c-1.27,0-2.62,0.65-3.14,1.08l-1.54-1.18
			c1.34-1.22,3.19-1.9,5.11-1.9C200.11,72.45,201.27,74.66,201.27,77.57z M199.08,79.44c-0.07,0-0.7,0-0.84,0
			c-2.26,0-5.21-0.02-5.21,2.11c0,0.94,0.6,1.9,2.54,1.9c2.09,0,3.36-1.46,3.5-2.02V79.44z"/>
		<path class="st0" d="M206.81,68.11v16.8h-2.18v-16.8H206.81z"/>
		<path class="st0" d="M219.94,77.57v7.34h-2.18v-1.68c-0.55,0.94-2.06,1.99-3.98,1.99c-2.3,0-4.32-1.39-4.32-3.58
			c0-3.82,4.63-3.91,6.34-3.91c0.62,0,1.66,0,1.97,0c0-1.85-0.38-3.29-2.9-3.29c-1.27,0-2.62,0.65-3.14,1.08l-1.54-1.18
			c1.34-1.22,3.19-1.9,5.11-1.9C218.78,72.45,219.94,74.66,219.94,77.57z M217.75,79.44c-0.07,0-0.7,0-0.84,0
			c-2.26,0-5.21-0.02-5.21,2.11c0,0.94,0.6,1.9,2.54,1.9c2.09,0,3.36-1.46,3.5-2.02V79.44z"/>
		<path class="st0" d="M223.32,72.74h2.18v12.38c0,2.28-1.27,4.22-4.22,4.22c-0.31,0-0.58-0.02-0.82-0.05v-1.94
			c2.33,0.07,2.86-1.03,2.86-2.66V72.74z M223.15,69.33c0-0.67,0.58-1.25,1.25-1.25c0.7,0,1.25,0.58,1.25,1.25
			c0,0.7-0.55,1.25-1.25,1.25C223.73,70.58,223.15,70.03,223.15,69.33z"/>
		<path class="st0" d="M238.63,77.57v7.34h-2.18v-1.68c-0.55,0.94-2.06,1.99-3.98,1.99c-2.3,0-4.32-1.39-4.32-3.58
			c0-3.82,4.63-3.91,6.34-3.91c0.62,0,1.66,0,1.97,0c0-1.85-0.38-3.29-2.9-3.29c-1.27,0-2.62,0.65-3.14,1.08l-1.54-1.18
			c1.34-1.22,3.19-1.9,5.11-1.9C237.48,72.45,238.63,74.66,238.63,77.57z M236.45,79.44c-0.07,0-0.7,0-0.84,0
			c-2.26,0-5.21-0.02-5.21,2.11c0,0.94,0.6,1.9,2.54,1.9c2.09,0,3.36-1.46,3.5-2.02V79.44z"/>
		<path class="st0" d="M248.23,72.45v2.47c-3.6-0.43-4.06,2.3-4.06,4.54v5.45h-2.18V72.74h2.18v2.11
			C244.99,73.22,246.67,72.45,248.23,72.45z"/>
		<path class="st0" d="M260.16,77.57v7.34h-2.18v-1.68c-0.55,0.94-2.06,1.99-3.98,1.99c-2.3,0-4.32-1.39-4.32-3.58
			c0-3.82,4.63-3.91,6.34-3.91c0.62,0,1.66,0,1.97,0c0-1.85-0.38-3.29-2.9-3.29c-1.27,0-2.62,0.65-3.14,1.08l-1.54-1.18
			c1.34-1.22,3.19-1.9,5.11-1.9C259,72.45,260.16,74.66,260.16,77.57z M257.97,79.44c-0.07,0-0.7,0-0.84,0
			c-2.26,0-5.21-0.02-5.21,2.11c0,0.94,0.6,1.9,2.54,1.9c2.09,0,3.36-1.46,3.5-2.02V79.44z"/>
	</g>
</g>
</svg>
