<?xml version="1.0" encoding="utf-8"?>
<!-- Generator: Adobe Illustrator 26.5.2, SVG Export Plug-In . SVG Version: 6.00 Build 0)  -->
<svg version="1.1" id="Capa_1" xmlns="http://www.w3.org/2000/svg" xmlns:xlink="http://www.w3.org/1999/xlink" x="0px" y="0px"
	 viewBox="0 0 563.5 800" style="enable-background:new 0 0 563.5 800;" xml:space="preserve">
<style type="text/css">
	.st0{opacity:0.36;fill:#D1D4D6;stroke:#7D858B;stroke-width:2.6515;stroke-miterlimit:10;}
	.st1{fill:#8079B2;}
	.st2{fill:#BCC0C3;}
	.st3{fill:#DEE7F8;}
	.st4{fill:#C3D5F7;}
	.st5{fill:#CFDFFC;}
	.st6{fill:#78A2E7;}
	.st7{fill:#687780;}
	.st8{fill:#6A7881;}
	.st9{fill:#697780;}
	.st10{fill:#697880;}
	.st11{fill:#DDE7F8;}
	.st12{fill:#8EB0F6;}
	.st13{fill:#4E5A5A;}
</style>
<path class="st0" d="M475.7,783H80.4c-36,0-65.2-29.2-65.2-65.2v-49c0-36,29.2-65.2,65.2-65.2h395.3c36,0,65.2,29.2,65.2,65.2v49
	C540.9,753.8,511.7,783,475.7,783z"/>
<g>
	<circle class="st1" cx="273.9" cy="264.1" r="236.7"/>
	<path class="st2" d="M273,28.8c130.7,0,236.7,106,236.7,236.7S403.7,502.2,273,502.2S36.3,396.2,36.3,265.5S142.2,28.8,273,28.8
		 M273,3.3c-35.4,0-69.7,6.9-102.1,20.6C139.7,37.1,111.6,56,87.6,80.1s-43,52.1-56.2,83.3c-13.7,32.3-20.6,66.7-20.6,102.1
		s6.9,69.7,20.6,102.1c13.2,31.2,32.1,59.3,56.2,83.3c24.1,24.1,52.1,43,83.3,56.2c32.3,13.7,66.7,20.6,102.1,20.6
		s69.7-6.9,102.1-20.6c31.2-13.2,59.3-32.1,83.3-56.2c24.1-24.1,43-52.1,56.2-83.3c13.7-32.3,20.6-66.7,20.6-102.1
		s-6.9-69.7-20.6-102.1c-13.2-31.2-32.1-59.3-56.2-83.3c-24.1-24.1-52.1-43-83.3-56.2C342.7,10.2,308.3,3.3,273,3.3L273,3.3z"/>
</g>
<g>
	<path class="st3" d="M406.3,261.9c0,37.6,0,75.2,0,112.7c-0.2,0.3-0.5,0.7-0.5,1c-1.8,11.1-12.9,19.3-23.3,19.3
		c-65.7-0.2-131.5-0.2-197.2,0c-10.4,0-20.2-6.6-23.4-17.3c1.1,0.4,2.2,0.7,3.4,1.1c18.6,6.6,37.7,8.2,57.1,4.5
		c24.7-4.7,45.4-16.6,62.1-35.4c6.6-7.4,11.9-15.7,16.4-24.6c1.2-2.4,1.2-4.6-0.1-7c-1.5-2.6-2.8-5.4-4.2-8.1c4.2,0,8.5,0,12.7-0.1
		c6,0,12,0.1,18.1,0c4.1-0.1,6.4-3.6,4.6-6.8c-1.2-2-3.1-2.2-5.1-2.2c-12,0-24.1,0-36.1,0c-4.5-5-9.1-10.1-13.6-15.1
		c1.4,0,2.8-0.1,4.1-0.1c27.9,0,55.7,0,83.6,0c3.6,0,5.5-1.5,5.5-4.4c0.1-2.9-1.9-4.6-5.3-4.6c-32.9,0-65.8,0-98.7,0.1
		c-2.9-1.8-5.9-3.6-8.8-5.4c-6.4-3.9-13.4-6.6-20.3-9.5c1.4,0,2.8-0.1,4.1-0.1c40.6,0,81.3,0,121.9,0c1,0,2,0.1,3-0.1
		c2.4-0.5,4-1.8,4-4.4c0-2.6-1.4-4.1-3.8-4.5c-1.3-0.2-2.6-0.2-3.8-0.2c-52.6,0-105.2,0-157.8,0c-0.9,0-1.8,0-2.7,0
		c-2.5,0.1-4.4,1.2-4.9,3.9c-4.7,0.2-9.4,0.9-14,1.6c-7.7,1.2-15,3.7-22.3,6.3c0-1.4-0.1-2.8-0.1-4.1c0-43.1,0-86.2,0-129.3
		c0-3.9,0.2-7.9,0.4-11.8c0.6-9.8,8.7-19.1,18.3-21.1c1.5-0.3,2.9-0.5,4.4-0.5c17.9-0.3,35.8,0.7,53.6-0.5c1.3-0.1,2.8-0.5,4,0.5
		c3.2,0.6,6.5,1.2,9.7,1.8c19.7,3.5,35.4,13.5,47.5,29.4c6.3,8.3,10.8,17.6,15.5,26.8c2.1,4.1,3.8,8.4,6.8,12c2,5,5.3,9,9.6,12
		c2.1,1.5,4,3.6,7,3.4c0.1,1.4,1.1,1.7,2.1,2.2c6.3,3.3,12.6,6.5,18.9,9.8c9.8,5.1,18.9,11.3,26.7,19.3
		c9.9,10.2,15.8,22.5,18.8,36.2C404.9,253,405.6,257.5,406.3,261.9z M283.6,235.9c26.6,0,53.2,0,79.8,0c1,0,2,0.1,3-0.1
		c2.4-0.3,3.7-1.7,3.9-4.1c0.2-2.4-1.1-3.9-3.3-4.6c-0.8-0.3-1.8-0.2-2.6-0.2c-53.7,0-107.3,0-161,0c-0.8,0-1.6-0.1-2.4,0.1
		c-2.5,0.5-3.9,2.1-3.8,4.6c0.1,2.5,1.6,4,4.1,4.3c1,0.1,2,0,3,0C230.6,235.9,257.1,235.9,283.6,235.9z M231.9,160.3
		c-9.8,0-19.6,0-29.4,0c-3.4,0-5.5,1.7-5.6,4.4c0,2.8,2.1,4.6,5.7,4.6c19.3,0,38.6,0,57.8,0c3.7,0,5.7-1.6,5.8-4.5
		c0.1-2.9-2-4.5-5.7-4.5C251.1,160.3,241.5,160.3,231.9,160.3z"/>
	<path class="st4" d="M287.7,95.3c19.9,0.2,37.6,5.8,52,20.2c15.5,15.5,31,31,46.5,46.5c11.3,11.4,17.9,25,19.6,41
		c0,0.5,0.4,0.9,0.5,1.3c0,2.8,0,5.5,0,8.3c-0.8-0.1-1-0.7-1.2-1.4c-0.8-2.5-1.5-5.2-2.7-7.5c-7.3-14.2-19.3-21.3-35.1-21.9
		c-9.9-0.4-19.9,0.6-29.8-0.6c-3,0.2-4.9-2-7-3.4c-4.3-3-7.6-7-9.6-12c-0.2-1.6-0.5-3.1-0.6-4.7c-0.3-10,0.4-19.9-0.5-29.9
		c-0.4-3.9-1-7.7-2.5-11.2c-5.2-12.2-14.1-20.2-27.2-23.4C289.2,96.4,287.9,96.7,287.7,95.3z"/>
	<path class="st5" d="M337.5,181.2c9.9,1.2,19.9,0.2,29.8,0.6c15.9,0.6,27.8,7.7,35.1,21.9c1.2,2.3,1.9,5,2.7,7.5
		c0.2,0.7,0.4,1.3,1.2,1.4c0,16.4,0,32.8,0,49.2c-0.8-4.4-1.4-8.8-2.4-13.2c-3-13.7-8.8-26-18.8-36.2c-7.8-8-16.8-14.2-26.7-19.3
		c-6.3-3.3-12.6-6.5-18.9-9.8C338.6,182.9,337.5,182.6,337.5,181.2z"/>
	<path class="st6" d="M161.9,377.6c-13.9-5.8-26.4-13.8-37.1-24.5c-8.7-8.7-15.8-18.7-21.2-29.8c-1.2-2.4-1.1-4.4,0-6.7
		c12.2-24.6,31-42.4,56.1-53.4c0.4-0.2,0.7-0.4,1-0.5c7.3-2.6,14.6-5.1,22.3-6.3c4.7-0.7,9.3-1.4,14-1.6c7.2-0.1,14.3,0.1,21.4,1.2
		c6.3,0.9,12.4,2.8,18.6,4.2c6.9,2.9,13.9,5.6,20.3,9.5c2.9,1.8,5.9,3.6,8.8,5.4c3.6,3,7.2,6,10.8,9c4.5,5,9.1,10.1,13.6,15.1
		c1.6,3.3,3.7,6.2,5.9,9.1c1.4,2.7,2.7,5.5,4.2,8.1c1.4,2.4,1.3,4.6,0.1,7c-4.5,8.9-9.8,17.2-16.4,24.6
		c-16.7,18.7-37.4,30.7-62.1,35.4c-19.4,3.7-38.5,2-57.1-4.5C164.1,378.3,163,377.9,161.9,377.6z M207.5,354.3
		c-17.7,1.6-33.2-3.5-45.7-16c-16.1-16.2-20.3-35.9-14.2-58c-0.6,0.2-0.9,0.2-1.2,0.3c-14.2,9.6-25.3,22-33.3,37.1
		c-0.9,1.8-0.5,3.2,0.3,4.7c7.2,13.6,16.9,25,29.4,34c24,17.3,50.7,23.3,79.5,17.3c30.8-6.3,53.7-24,68.8-51.6c1-1.8,0.9-3.3-0.1-5
		c-2.5-4.4-5.1-8.7-8.1-12.7c-7.8-10.3-16.9-19.1-28-25.7c-2.9-1.7-5.7-3.6-8.7-5c-16.6-7.6-33.8-11.4-52.2-9.7
		c-11.2,1.1-21.9,3.6-32.2,8c-2,0.9-2.9,2-3.5,3.9c-2.8,8.9-3.3,18-1.8,27.2c3.2,20.3,14.4,35,32.3,44.8
		C194.7,351.2,201.1,352.6,207.5,354.3z"/>
	<path class="st7" d="M283.6,235.9c-26.5,0-53,0-79.5,0c-1,0-2,0.1-3,0c-2.5-0.3-4-1.8-4.1-4.3c-0.1-2.5,1.3-4.1,3.8-4.6
		c0.8-0.2,1.6-0.1,2.4-0.1c53.7,0,107.3,0,161,0c0.9,0,1.8-0.1,2.6,0.2c2.2,0.7,3.5,2.2,3.3,4.6c-0.2,2.4-1.6,3.8-3.9,4.1
		c-1,0.1-2,0.1-3,0.1C336.7,235.9,310.1,235.9,283.6,235.9z"/>
	<path class="st8" d="M237.2,260.1c-6.2-1.4-12.3-3.3-18.6-4.2c-7.1-1.1-14.3-1.2-21.4-1.2c0.5-2.7,2.4-3.7,4.9-3.9
		c0.9-0.1,1.8,0,2.7,0c52.6,0,105.2,0,157.8,0c1.3,0,2.6,0,3.8,0.2c2.5,0.4,3.9,1.9,3.8,4.5c0,2.6-1.6,4-4,4.4c-1,0.2-2,0.1-3,0.1
		c-40.6,0-81.3,0-121.9,0C240,260,238.6,260.1,237.2,260.1z"/>
	<path class="st5" d="M287.7,95.3c0.2,1.4,1.5,1.1,2.4,1.3c13,3.2,22,11.2,27.2,23.4c1.5,3.5,2.2,7.3,2.5,11.2
		c1,10,0.3,19.9,0.5,29.9c0,1.6,0.4,3.1,0.6,4.7c-3-3.6-4.7-7.9-6.8-12c-4.7-9.2-9.3-18.5-15.5-26.8c-12-16-27.7-25.9-47.5-29.4
		c-3.2-0.6-6.5-1.2-9.7-1.8c12.9,0,25.8,0,38.7,0C282.7,95.8,285.1,94.7,287.7,95.3z"/>
	<path class="st7" d="M277,284c-3.6-3-7.2-6-10.8-9c32.9,0,65.8,0,98.7-0.1c3.4,0,5.4,1.7,5.3,4.6c-0.1,2.8-1.9,4.4-5.5,4.4
		c-27.9,0-55.7,0-83.6,0C279.8,283.9,278.4,284,277,284z"/>
	<path class="st9" d="M231.9,160.3c9.6,0,19.2,0,28.8,0c3.7,0,5.7,1.7,5.7,4.5c-0.1,2.8-2.1,4.5-5.8,4.5c-19.3,0-38.6,0-57.8,0
		c-3.6,0-5.7-1.8-5.7-4.6c0-2.7,2.1-4.4,5.6-4.4C212.3,160.3,222.1,160.3,231.9,160.3z"/>
	<path class="st10" d="M296.5,308.2c-2.1-2.9-4.3-5.8-5.9-9.1c12,0,24.1,0,36.1,0c2.1,0,4,0.2,5.1,2.2c1.8,3.2-0.5,6.7-4.6,6.8
		c-6,0.1-12,0-18.1,0C305,308.1,300.7,308.1,296.5,308.2z"/>
	<path class="st11" d="M254.9,278.8c11.1,6.6,20.2,15.4,28,25.7c3,4,5.6,8.4,8.1,12.7c1,1.7,1,3.2,0.1,5
		c-15.1,27.6-37.9,45.3-68.8,51.6c-28.8,5.9-55.5-0.1-79.5-17.3c-12.5-9-22.2-20.4-29.4-34c-0.8-1.6-1.3-2.9-0.3-4.7
		c8-15.2,19.2-27.5,33.3-37.1c0.2-0.2,0.5-0.2,1.2-0.3c-6,22.1-1.9,41.7,14.2,58c12.5,12.6,28,17.7,45.7,16c5.2-0.7,10.2-2,15.2-3.8
		c19.8-7.3,35.1-29.1,35.4-50.1C258.2,293,256.9,285.9,254.9,278.8z"/>
	<path class="st12" d="M254.9,278.8c1.9,7.1,3.2,14.2,3.1,21.6c-0.3,21.1-15.6,42.8-35.4,50.1c-4.9,1.8-10,3.1-15.2,3.8
		c-6.3-1.8-12.8-3.1-18.7-6.3c-17.9-9.8-29.1-24.4-32.3-44.8c-1.4-9.1-0.9-18.2,1.8-27.2c0.6-1.9,1.5-3.1,3.5-3.9
		c10.3-4.4,21-6.9,32.2-8c18.4-1.7,35.6,2.1,52.2,9.7C249.3,275.2,252,277.2,254.9,278.8z M207.5,325.3c1.3-0.4,2.7-0.7,4-1.2
		c12-4.4,19.6-17.3,17.6-29.7c-2-12.6-9.4-20.2-21.6-23.6c-1.5-0.2-2.9-0.6-4.4-0.6c-17.2-0.9-30,13.4-29.5,28.9
		C174.2,316.1,191.1,329.4,207.5,325.3z"/>
	<path class="st7" d="M207.5,270.9c12.1,3.3,19.5,11,21.6,23.6c2,12.4-5.6,25.3-17.6,29.7c-1.3,0.5-2.6,0.8-4,1.2
		c-0.4-1.1-1.6-1.1-2.4-1.5c-13.1-5.7-19.9-19.1-16.4-32.6c2.3-9.1,8.2-15.3,16.7-19C206.1,271.9,207.1,271.8,207.5,270.9z"/>
	<path class="st13" d="M207.5,270.9c-0.4,1-1.4,1-2.2,1.3c-8.5,3.7-14.4,9.9-16.7,19c-3.5,13.6,3.3,26.9,16.4,32.6
		c0.9,0.4,2,0.4,2.4,1.5c-16.5,4.1-33.3-9.2-33.9-26.1c-0.5-15.5,12.3-29.8,29.5-28.9C204.6,270.3,206,270.7,207.5,270.9z"/>
</g>
<rect x="265.3" y="515.2" class="st2" width="25.5" height="93.3"/>
<g>
	<path class="st7" d="M182.6,668.8c0,8-6.8,14.9-18.1,14.9c-8.4,0-17.5-3.2-19.4-12.4l11.7-3.6c0.3,2.4,2.9,4.6,7.2,4.6
		c3.6,0,5.1-1.6,5.1-3.4c0-2.8-3.5-3-8.1-4.1c-8.9-2.1-14-5.8-14-14.2c0-8.8,7.4-14.7,17.5-14.7c8.1,0,15.2,4.1,16.9,12.1l-11.6,2.8
		c-0.5-1.8-2.1-3.6-5.2-3.6c-2.6,0-4.6,1.1-4.6,3.2c0,2.6,4,3,7.6,4C178.8,657.7,182.6,661.5,182.6,668.8z"/>
	<path class="st7" d="M186.6,640.2c0-3.4,2.8-6.1,6.2-6.1s6.2,2.8,6.2,6.1c0,3.4-2.8,6.2-6.2,6.2S186.6,643.6,186.6,640.2z
		 M186.9,649.5h11.9v33.4h-11.9V649.5z"/>
	<path class="st7" d="M239.4,649.5V680c0,9.7-6.9,16.2-18.8,16.2c-6.9,0-13.6-2.6-16.3-7.2l8.8-5.2c0.9,1.3,3.5,2.8,7,2.8
		c6.1,0,7.5-3,7.5-7.8v-0.6c-1.9,2-4.7,3.2-8.7,3.2c-9.9,0-15.5-7.6-15.5-16.3s5.4-16.3,15.5-16.3c4,0,6.8,1.3,8.7,3.4v-2.6H239.4z
		 M227.2,665.1c0-3.8-2.4-6-5.9-6c-3.7,0-6,2.5-6,6c0,3.5,2.3,6,6,6C224.7,671,227.2,668.8,227.2,665.1z"/>
	<path class="st7" d="M279.3,649.5v33.4h-11.9v-3.6c-1.7,2.4-4.5,4.4-9.2,4.4c-10.4,0-12.2-8.4-12.2-13.3v-20.9h11.9v18
		c0,2.6,1.8,4.5,4.8,4.5c2.9,0,4.7-2,4.7-4.5v-18H279.3z"/>
	<path class="st7" d="M318.6,669.5l-23.1,0.1c0.9,3.2,3.4,5,7.3,5c3,0,5.1-1.5,6.2-2.8l8,4.7c-2.4,4.1-7.6,7.2-14.2,7.2
		c-11.3,0-18.9-7-18.9-17.4c0-9.8,7.4-17.6,17.6-17.6C311.4,648.7,320.1,656,318.6,669.5z M307.7,663c-0.7-3.1-2.7-5.1-6.2-5.1
		c-3,0-5.2,2-6.1,5.1L307.7,663z"/>
	<path class="st7" d="M356.8,659.5v8.8c0,3,1.5,4.7,4.5,4.7c0.9,0,1.5-0.1,2-0.2v10c-1.2,0.4-2.4,0.7-5.2,0.7
		c-10.4,0-13.2-7.6-13.2-14.1v-9.9h-4.1v-10h4.1v-7h11.9v7h6.6v10H356.8z"/>
	<path class="st7" d="M402.9,649.5v33.4h-11.9v-3.6c-1.7,2.4-4.5,4.4-9.2,4.4c-10.4,0-12.2-8.4-12.2-13.3v-20.9h11.9v18
		c0,2.6,1.8,4.5,4.8,4.5c2.9,0,4.7-2,4.7-4.5v-18H402.9z"/>
	<path class="st7" d="M169,700.5v46.1h-11.9v-2.7c-1.9,2.2-4.7,3.6-8.7,3.6c-10.4,0-15.5-8.8-15.5-17.5s5.1-17.5,15.5-17.5
		c4,0,6.8,1.4,8.7,3.5v-15.4H169z M156.8,730c0-3.6-2.5-6-6-6c-3.7,0-6,2.5-6,6c0,3.4,2.3,5.9,6,5.9
		C154.3,735.9,156.8,733.5,156.8,730z"/>
	<path class="st7" d="M208.3,733.2l-23.1,0.1c0.9,3.2,3.4,5,7.3,5c3,0,5.1-1.5,6.2-2.8l8,4.7c-2.4,4.1-7.6,7.2-14.2,7.2
		c-11.3,0-18.9-7-18.9-17.4c0-9.8,7.4-17.6,17.6-17.6C201.1,712.4,209.8,719.7,208.3,733.2z M197.4,726.7c-0.7-3.1-2.7-5.1-6.2-5.1
		c-3,0-5.2,2-6.1,5.1L197.4,726.7z"/>
	<path class="st7" d="M246.3,725.7v20.9h-11.9v-18c0-2.6-1.8-4.5-4.7-4.5s-4.7,1.9-4.7,4.5v18h-11.9v-33.4h11.9v3.6
		c1.7-2.4,4.5-4.3,9.1-4.3C244.5,712.4,246.3,720.9,246.3,725.7z"/>
	<path class="st7" d="M286.1,713.2v33.4h-11.9v-3.6c-1.7,2.4-4.5,4.4-9.2,4.4c-10.4,0-12.2-8.4-12.2-13.3v-20.9h11.9v18
		c0,2.6,1.8,4.5,4.8,4.5c2.9,0,4.7-2,4.7-4.5v-18H286.1z"/>
	<path class="st7" d="M325.9,725.7v20.9H314v-18c0-2.6-1.8-4.5-4.7-4.5c-2.9,0-4.7,1.9-4.7,4.5v18h-11.9v-33.4h11.9v3.6
		c1.7-2.4,4.5-4.3,9.1-4.3C324.1,712.4,325.9,720.9,325.9,725.7z"/>
	<path class="st7" d="M353.5,733.3l10.2,6.2c-3,4.9-8.6,8-15.3,8c-10.4,0-17.9-7.3-17.9-17.5c0-10.2,7.5-17.5,17.9-17.5
		c6.7,0,12.2,3,15.3,7.9l-10.2,6.3c-1-1.6-2.8-2.6-5.1-2.6c-3.4,0-5.9,2.3-5.9,6c0,3.7,2.5,5.9,5.9,5.9
		C350.6,735.9,352.5,735,353.5,733.3z"/>
	<path class="st7" d="M366.7,703.9c0-3.4,2.8-6.1,6.2-6.1s6.2,2.8,6.2,6.1c0,3.4-2.8,6.2-6.2,6.2S366.7,707.3,366.7,703.9z
		 M367,713.2h11.9v33.4H367V713.2z"/>
	<path class="st7" d="M415.4,725.9v20.7h-11.9v-3.1c-1.7,2.6-5.6,4-8.9,4c-4.1,0-11.2-1.7-11.2-9.8c0-11.2,14-11.2,16.2-11.2
		c1.5,0,3.2,0,3.9,0c0-3.1-1.8-4.8-4.8-4.8c-2.2,0-4.6,0.9-5.9,1.9l-7.6-5.1c3.6-3.8,8.8-6,15.2-6
		C411.1,712.4,415.4,717.9,415.4,725.9z M403.5,732.3c-0.2,0-0.5,0-0.9,0c-5.3,0-7.2,1.3-7.2,3.4c0,1.6,1.2,2.8,3.3,2.8
		c2.2,0,4-1.1,4.8-2.4V732.3z"/>
</g>
<path class="st2" d="M475.7,795.7H80.4c-43,0-77.9-35-77.9-77.9v-49c0-43,35-77.9,77.9-77.9h395.3c43,0,77.9,35,77.9,77.9v49
	C553.7,760.7,518.7,795.7,475.7,795.7z M80.4,616.3c-28.9,0-52.5,23.5-52.5,52.5v49c0,28.9,23.5,52.5,52.5,52.5h395.3
	c28.9,0,52.5-23.5,52.5-52.5v-49c0-28.9-23.5-52.5-52.5-52.5H80.4z"/>
</svg>
